^D:\CLOUDTEMA2\GENERATED\SERVER\DATAOPERATIONSERVICEIMP.CPP
C:\PROGRAM FILES (X86)\MICROSOFT VISUAL STUDIO\2019\COMMUNITY\VC\TOOLS\MSVC\14.23.28105\INCLUDE\STRING
C:\PROGRAM FILES (X86)\MICROSOFT VISUAL STUDIO\2019\COMMUNITY\VC\TOOLS\MSVC\14.23.28105\INCLUDE\YVALS_CORE.H
C:\PROGRAM FILES (X86)\MICROSOFT VISUAL STUDIO\2019\COMMUNITY\VC\TOOLS\MSVC\14.23.28105\INCLUDE\CRTDEFS.H
C:\PROGRAM FILES (X86)\MICROSOFT VISUAL STUDIO\2019\COMMUNITY\VC\TOOLS\MSVC\14.23.28105\INCLUDE\VCRUNTIME.H
C:\PROGRAM FILES (X86)\MICROSOFT VISUAL STUDIO\2019\COMMUNITY\VC\TOOLS\MSVC\14.23.28105\INCLUDE\SAL.H
C:\PROGRAM FILES (X86)\MICROSOFT VISUAL STUDIO\2019\COMMUNITY\VC\TOOLS\MSVC\14.23.28105\INCLUDE\CONCURRENCYSAL.H
C:\PROGRAM FILES (X86)\MICROSOFT VISUAL STUDIO\2019\COMMUNITY\VC\TOOLS\MSVC\14.23.28105\INCLUDE\VADEFS.H
C:\PROGRAM FILES (X86)\WINDOWS KITS\10\INCLUDE\10.0.18362.0\UCRT\CORECRT.H
C:\PROGRAM FILES (X86)\MICROSOFT VISUAL STUDIO\2019\COMMUNITY\VC\TOOLS\MSVC\14.23.28105\INCLUDE\XKEYCHECK.H
C:\PROGRAM FILES (X86)\MICROSOFT VISUAL STUDIO\2019\COMMUNITY\VC\TOOLS\MSVC\14.23.28105\INCLUDE\XSTRING
C:\PROGRAM FILES (X86)\MICROSOFT VISUAL STUDIO\2019\COMMUNITY\VC\TOOLS\MSVC\14.23.28105\INCLUDE\IOSFWD
C:\PROGRAM FILES (X86)\MICROSOFT VISUAL STUDIO\2019\COMMUNITY\VC\TOOLS\MSVC\14.23.28105\INCLUDE\YVALS.H
C:\PROGRAM FILES (X86)\WINDOWS KITS\10\INCLUDE\10.0.18362.0\UCRT\CRTDBG.H
C:\PROGRAM FILES (X86)\MICROSOFT VISUAL STUDIO\2019\COMMUNITY\VC\TOOLS\MSVC\14.23.28105\INCLUDE\VCRUNTIME_NEW_DEBUG.H
C:\PROGRAM FILES (X86)\MICROSOFT VISUAL STUDIO\2019\COMMUNITY\VC\TOOLS\MSVC\14.23.28105\INCLUDE\VCRUNTIME_NEW.H
C:\PROGRAM FILES (X86)\MICROSOFT VISUAL STUDIO\2019\COMMUNITY\VC\TOOLS\MSVC\14.23.28105\INCLUDE\USE_ANSI.H
C:\PROGRAM FILES (X86)\MICROSOFT VISUAL STUDIO\2019\COMMUNITY\VC\TOOLS\MSVC\14.23.28105\INCLUDE\CSTDIO
C:\PROGRAM FILES (X86)\WINDOWS KITS\10\INCLUDE\10.0.18362.0\UCRT\STDIO.H
C:\PROGRAM FILES (X86)\WINDOWS KITS\10\INCLUDE\10.0.18362.0\UCRT\CORECRT_WSTDIO.H
C:\PROGRAM FILES (X86)\WINDOWS KITS\10\INCLUDE\10.0.18362.0\UCRT\CORECRT_STDIO_CONFIG.H
C:\PROGRAM FILES (X86)\MICROSOFT VISUAL STUDIO\2019\COMMUNITY\VC\TOOLS\MSVC\14.23.28105\INCLUDE\CSTRING
C:\PROGRAM FILES (X86)\WINDOWS KITS\10\INCLUDE\10.0.18362.0\UCRT\STRING.H
C:\PROGRAM FILES (X86)\WINDOWS KITS\10\INCLUDE\10.0.18362.0\UCRT\CORECRT_MEMORY.H
C:\PROGRAM FILES (X86)\WINDOWS KITS\10\INCLUDE\10.0.18362.0\UCRT\CORECRT_MEMCPY_S.H
C:\PROGRAM FILES (X86)\WINDOWS KITS\10\INCLUDE\10.0.18362.0\UCRT\ERRNO.H
C:\PROGRAM FILES (X86)\MICROSOFT VISUAL STUDIO\2019\COMMUNITY\VC\TOOLS\MSVC\14.23.28105\INCLUDE\VCRUNTIME_STRING.H
C:\PROGRAM FILES (X86)\WINDOWS KITS\10\INCLUDE\10.0.18362.0\UCRT\CORECRT_WSTRING.H
C:\PROGRAM FILES (X86)\MICROSOFT VISUAL STUDIO\2019\COMMUNITY\VC\TOOLS\MSVC\14.23.28105\INCLUDE\CWCHAR
C:\PROGRAM FILES (X86)\WINDOWS KITS\10\INCLUDE\10.0.18362.0\UCRT\WCHAR.H
C:\PROGRAM FILES (X86)\WINDOWS KITS\10\INCLUDE\10.0.18362.0\UCRT\CORECRT_WCONIO.H
C:\PROGRAM FILES (X86)\WINDOWS KITS\10\INCLUDE\10.0.18362.0\UCRT\CORECRT_WCTYPE.H
C:\PROGRAM FILES (X86)\WINDOWS KITS\10\INCLUDE\10.0.18362.0\UCRT\CORECRT_WDIRECT.H
C:\PROGRAM FILES (X86)\WINDOWS KITS\10\INCLUDE\10.0.18362.0\UCRT\CORECRT_WIO.H
C:\PROGRAM FILES (X86)\WINDOWS KITS\10\INCLUDE\10.0.18362.0\UCRT\CORECRT_SHARE.H
C:\PROGRAM FILES (X86)\WINDOWS KITS\10\INCLUDE\10.0.18362.0\UCRT\CORECRT_WPROCESS.H
C:\PROGRAM FILES (X86)\WINDOWS KITS\10\INCLUDE\10.0.18362.0\UCRT\CORECRT_WSTDLIB.H
C:\PROGRAM FILES (X86)\WINDOWS KITS\10\INCLUDE\10.0.18362.0\UCRT\CORECRT_WTIME.H
C:\PROGRAM FILES (X86)\WINDOWS KITS\10\INCLUDE\10.0.18362.0\UCRT\SYS\STAT.H
C:\PROGRAM FILES (X86)\WINDOWS KITS\10\INCLUDE\10.0.18362.0\UCRT\SYS\TYPES.H
C:\PROGRAM FILES (X86)\MICROSOFT VISUAL STUDIO\2019\COMMUNITY\VC\TOOLS\MSVC\14.23.28105\INCLUDE\XSTDDEF
C:\PROGRAM FILES (X86)\MICROSOFT VISUAL STUDIO\2019\COMMUNITY\VC\TOOLS\MSVC\14.23.28105\INCLUDE\CSTDDEF
C:\PROGRAM FILES (X86)\WINDOWS KITS\10\INCLUDE\10.0.18362.0\UCRT\STDDEF.H
C:\PROGRAM FILES (X86)\MICROSOFT VISUAL STUDIO\2019\COMMUNITY\VC\TOOLS\MSVC\14.23.28105\INCLUDE\XTR1COMMON
C:\PROGRAM FILES (X86)\MICROSOFT VISUAL STUDIO\2019\COMMUNITY\VC\TOOLS\MSVC\14.23.28105\INCLUDE\CSTDLIB
C:\PROGRAM FILES (X86)\WINDOWS KITS\10\INCLUDE\10.0.18362.0\UCRT\MATH.H
C:\PROGRAM FILES (X86)\WINDOWS KITS\10\INCLUDE\10.0.18362.0\UCRT\CORECRT_MATH.H
C:\PROGRAM FILES (X86)\WINDOWS KITS\10\INCLUDE\10.0.18362.0\UCRT\STDLIB.H
C:\PROGRAM FILES (X86)\WINDOWS KITS\10\INCLUDE\10.0.18362.0\UCRT\CORECRT_MALLOC.H
C:\PROGRAM FILES (X86)\WINDOWS KITS\10\INCLUDE\10.0.18362.0\UCRT\CORECRT_SEARCH.H
C:\PROGRAM FILES (X86)\MICROSOFT VISUAL STUDIO\2019\COMMUNITY\VC\TOOLS\MSVC\14.23.28105\INCLUDE\LIMITS.H
C:\PROGRAM FILES (X86)\MICROSOFT VISUAL STUDIO\2019\COMMUNITY\VC\TOOLS\MSVC\14.23.28105\INCLUDE\INITIALIZER_LIST
C:\PROGRAM FILES (X86)\MICROSOFT VISUAL STUDIO\2019\COMMUNITY\VC\TOOLS\MSVC\14.23.28105\INCLUDE\XMEMORY
C:\PROGRAM FILES (X86)\MICROSOFT VISUAL STUDIO\2019\COMMUNITY\VC\TOOLS\MSVC\14.23.28105\INCLUDE\CSTDINT
C:\PROGRAM FILES (X86)\MICROSOFT VISUAL STUDIO\2019\COMMUNITY\VC\TOOLS\MSVC\14.23.28105\INCLUDE\STDINT.H
C:\PROGRAM FILES (X86)\MICROSOFT VISUAL STUDIO\2019\COMMUNITY\VC\TOOLS\MSVC\14.23.28105\INCLUDE\LIMITS
C:\PROGRAM FILES (X86)\MICROSOFT VISUAL STUDIO\2019\COMMUNITY\VC\TOOLS\MSVC\14.23.28105\INCLUDE\CFLOAT
C:\PROGRAM FILES (X86)\WINDOWS KITS\10\INCLUDE\10.0.18362.0\UCRT\FLOAT.H
C:\PROGRAM FILES (X86)\MICROSOFT VISUAL STUDIO\2019\COMMUNITY\VC\TOOLS\MSVC\14.23.28105\INCLUDE\CLIMITS
C:\PROGRAM FILES (X86)\MICROSOFT VISUAL STUDIO\2019\COMMUNITY\VC\TOOLS\MSVC\14.23.28105\INCLUDE\NEW
C:\PROGRAM FILES (X86)\MICROSOFT VISUAL STUDIO\2019\COMMUNITY\VC\TOOLS\MSVC\14.23.28105\INCLUDE\EXCEPTION
C:\PROGRAM FILES (X86)\MICROSOFT VISUAL STUDIO\2019\COMMUNITY\VC\TOOLS\MSVC\14.23.28105\INCLUDE\TYPE_TRAITS
C:\PROGRAM FILES (X86)\WINDOWS KITS\10\INCLUDE\10.0.18362.0\UCRT\MALLOC.H
C:\PROGRAM FILES (X86)\MICROSOFT VISUAL STUDIO\2019\COMMUNITY\VC\TOOLS\MSVC\14.23.28105\INCLUDE\VCRUNTIME_EXCEPTION.H
C:\PROGRAM FILES (X86)\MICROSOFT VISUAL STUDIO\2019\COMMUNITY\VC\TOOLS\MSVC\14.23.28105\INCLUDE\EH.H
C:\PROGRAM FILES (X86)\WINDOWS KITS\10\INCLUDE\10.0.18362.0\UCRT\CORECRT_TERMINATE.H
C:\PROGRAM FILES (X86)\MICROSOFT VISUAL STUDIO\2019\COMMUNITY\VC\TOOLS\MSVC\14.23.28105\INCLUDE\XATOMIC.H
C:\PROGRAM FILES (X86)\MICROSOFT VISUAL STUDIO\2019\COMMUNITY\VC\TOOLS\MSVC\14.23.28105\INCLUDE\INTRIN0.H
C:\PROGRAM FILES (X86)\MICROSOFT VISUAL STUDIO\2019\COMMUNITY\VC\TOOLS\MSVC\14.23.28105\INCLUDE\XUTILITY
C:\PROGRAM FILES (X86)\MICROSOFT VISUAL STUDIO\2019\COMMUNITY\VC\TOOLS\MSVC\14.23.28105\INCLUDE\UTILITY
C:\PROGRAM FILES (X86)\MICROSOFT VISUAL STUDIO\2019\COMMUNITY\VC\TOOLS\MSVC\14.23.28105\INCLUDE\CCTYPE
C:\PROGRAM FILES (X86)\WINDOWS KITS\10\INCLUDE\10.0.18362.0\UCRT\CTYPE.H
C:\PROGRAM FILES (X86)\MICROSOFT VISUAL STUDIO\2019\COMMUNITY\VC\TOOLS\MSVC\14.23.28105\INCLUDE\SSTREAM
C:\PROGRAM FILES (X86)\MICROSOFT VISUAL STUDIO\2019\COMMUNITY\VC\TOOLS\MSVC\14.23.28105\INCLUDE\ISTREAM
C:\PROGRAM FILES (X86)\MICROSOFT VISUAL STUDIO\2019\COMMUNITY\VC\TOOLS\MSVC\14.23.28105\INCLUDE\OSTREAM
C:\PROGRAM FILES (X86)\MICROSOFT VISUAL STUDIO\2019\COMMUNITY\VC\TOOLS\MSVC\14.23.28105\INCLUDE\IOS
C:\PROGRAM FILES (X86)\MICROSOFT VISUAL STUDIO\2019\COMMUNITY\VC\TOOLS\MSVC\14.23.28105\INCLUDE\XLOCNUM
C:\PROGRAM FILES (X86)\MICROSOFT VISUAL STUDIO\2019\COMMUNITY\VC\TOOLS\MSVC\14.23.28105\INCLUDE\CMATH
C:\PROGRAM FILES (X86)\MICROSOFT VISUAL STUDIO\2019\COMMUNITY\VC\TOOLS\MSVC\14.23.28105\INCLUDE\XTGMATH.H
C:\PROGRAM FILES (X86)\MICROSOFT VISUAL STUDIO\2019\COMMUNITY\VC\TOOLS\MSVC\14.23.28105\INCLUDE\STREAMBUF
C:\PROGRAM FILES (X86)\MICROSOFT VISUAL STUDIO\2019\COMMUNITY\VC\TOOLS\MSVC\14.23.28105\INCLUDE\XIOSBASE
C:\PROGRAM FILES (X86)\WINDOWS KITS\10\INCLUDE\10.0.18362.0\UCRT\SHARE.H
C:\PROGRAM FILES (X86)\MICROSOFT VISUAL STUDIO\2019\COMMUNITY\VC\TOOLS\MSVC\14.23.28105\INCLUDE\SYSTEM_ERROR
C:\PROGRAM FILES (X86)\MICROSOFT VISUAL STUDIO\2019\COMMUNITY\VC\TOOLS\MSVC\14.23.28105\INCLUDE\CERRNO
C:\PROGRAM FILES (X86)\MICROSOFT VISUAL STUDIO\2019\COMMUNITY\VC\TOOLS\MSVC\14.23.28105\INCLUDE\STDEXCEPT
C:\PROGRAM FILES (X86)\MICROSOFT VISUAL STUDIO\2019\COMMUNITY\VC\TOOLS\MSVC\14.23.28105\INCLUDE\XCALL_ONCE.H
C:\PROGRAM FILES (X86)\MICROSOFT VISUAL STUDIO\2019\COMMUNITY\VC\TOOLS\MSVC\14.23.28105\INCLUDE\XERRC.H
C:\PROGRAM FILES (X86)\MICROSOFT VISUAL STUDIO\2019\COMMUNITY\VC\TOOLS\MSVC\14.23.28105\INCLUDE\XLOCALE
C:\PROGRAM FILES (X86)\MICROSOFT VISUAL STUDIO\2019\COMMUNITY\VC\TOOLS\MSVC\14.23.28105\INCLUDE\MEMORY
C:\PROGRAM FILES (X86)\MICROSOFT VISUAL STUDIO\2019\COMMUNITY\VC\TOOLS\MSVC\14.23.28105\INCLUDE\TYPEINFO
C:\PROGRAM FILES (X86)\MICROSOFT VISUAL STUDIO\2019\COMMUNITY\VC\TOOLS\MSVC\14.23.28105\INCLUDE\VCRUNTIME_TYPEINFO.H
C:\PROGRAM FILES (X86)\MICROSOFT VISUAL STUDIO\2019\COMMUNITY\VC\TOOLS\MSVC\14.23.28105\INCLUDE\XFACET
C:\PROGRAM FILES (X86)\MICROSOFT VISUAL STUDIO\2019\COMMUNITY\VC\TOOLS\MSVC\14.23.28105\INCLUDE\XLOCINFO
C:\PROGRAM FILES (X86)\MICROSOFT VISUAL STUDIO\2019\COMMUNITY\VC\TOOLS\MSVC\14.23.28105\INCLUDE\XLOCINFO.H
C:\PROGRAM FILES (X86)\WINDOWS KITS\10\INCLUDE\10.0.18362.0\UCRT\LOCALE.H
D:\CLOUDTEMA2\GENERATED\SERVER\DATAOPERATIONSERVICEIMP.H
D:\CLOUDTEMA2\GENERATED\DATAOPERATION.GRPC.PB.H
D:\CLOUDTEMA2\GENERATED\DATAOPERATION.PB.H
D:\CLOUDSEM2\VCPKG-MASTER\INSTALLED\X86-WINDOWS\INCLUDE\GOOGLE\PROTOBUF\PORT_DEF.INC
D:\CLOUDSEM2\VCPKG-MASTER\INSTALLED\X86-WINDOWS\INCLUDE\GOOGLE\PROTOBUF\PORT_UNDEF.INC
D:\CLOUDSEM2\VCPKG-MASTER\INSTALLED\X86-WINDOWS\INCLUDE\GOOGLE\PROTOBUF\IO\CODED_STREAM.H
C:\PROGRAM FILES (X86)\WINDOWS KITS\10\INCLUDE\10.0.18362.0\UCRT\ASSERT.H
C:\PROGRAM FILES (X86)\MICROSOFT VISUAL STUDIO\2019\COMMUNITY\VC\TOOLS\MSVC\14.23.28105\INCLUDE\ATOMIC
D:\CLOUDSEM2\VCPKG-MASTER\INSTALLED\X86-WINDOWS\INCLUDE\GOOGLE\PROTOBUF\STUBS\COMMON.H
C:\PROGRAM FILES (X86)\MICROSOFT VISUAL STUDIO\2019\COMMUNITY\VC\TOOLS\MSVC\14.23.28105\INCLUDE\ALGORITHM
C:\PROGRAM FILES (X86)\MICROSOFT VISUAL STUDIO\2019\COMMUNITY\VC\TOOLS\MSVC\14.23.28105\INCLUDE\IOSTREAM
C:\PROGRAM FILES (X86)\MICROSOFT VISUAL STUDIO\2019\COMMUNITY\VC\TOOLS\MSVC\14.23.28105\INCLUDE\MAP
C:\PROGRAM FILES (X86)\MICROSOFT VISUAL STUDIO\2019\COMMUNITY\VC\TOOLS\MSVC\14.23.28105\INCLUDE\TUPLE
C:\PROGRAM FILES (X86)\MICROSOFT VISUAL STUDIO\2019\COMMUNITY\VC\TOOLS\MSVC\14.23.28105\INCLUDE\XTREE
C:\PROGRAM FILES (X86)\MICROSOFT VISUAL STUDIO\2019\COMMUNITY\VC\TOOLS\MSVC\14.23.28105\INCLUDE\SET
C:\PROGRAM FILES (X86)\MICROSOFT VISUAL STUDIO\2019\COMMUNITY\VC\TOOLS\MSVC\14.23.28105\INCLUDE\VECTOR
D:\CLOUDSEM2\VCPKG-MASTER\INSTALLED\X86-WINDOWS\INCLUDE\GOOGLE\PROTOBUF\STUBS\PORT.H
D:\CLOUDSEM2\VCPKG-MASTER\INSTALLED\X86-WINDOWS\INCLUDE\GOOGLE\PROTOBUF\STUBS\PLATFORM_MACROS.H
C:\PROGRAM FILES (X86)\MICROSOFT VISUAL STUDIO\2019\COMMUNITY\VC\TOOLS\MSVC\14.23.28105\INCLUDE\INTRIN.H
C:\PROGRAM FILES (X86)\MICROSOFT VISUAL STUDIO\2019\COMMUNITY\VC\TOOLS\MSVC\14.23.28105\INCLUDE\SETJMP.H
C:\PROGRAM FILES (X86)\MICROSOFT VISUAL STUDIO\2019\COMMUNITY\VC\TOOLS\MSVC\14.23.28105\INCLUDE\IMMINTRIN.H
C:\PROGRAM FILES (X86)\MICROSOFT VISUAL STUDIO\2019\COMMUNITY\VC\TOOLS\MSVC\14.23.28105\INCLUDE\WMMINTRIN.H
C:\PROGRAM FILES (X86)\MICROSOFT VISUAL STUDIO\2019\COMMUNITY\VC\TOOLS\MSVC\14.23.28105\INCLUDE\NMMINTRIN.H
C:\PROGRAM FILES (X86)\MICROSOFT VISUAL STUDIO\2019\COMMUNITY\VC\TOOLS\MSVC\14.23.28105\INCLUDE\SMMINTRIN.H
C:\PROGRAM FILES (X86)\MICROSOFT VISUAL STUDIO\2019\COMMUNITY\VC\TOOLS\MSVC\14.23.28105\INCLUDE\TMMINTRIN.H
C:\PROGRAM FILES (X86)\MICROSOFT VISUAL STUDIO\2019\COMMUNITY\VC\TOOLS\MSVC\14.23.28105\INCLUDE\PMMINTRIN.H
C:\PROGRAM FILES (X86)\MICROSOFT VISUAL STUDIO\2019\COMMUNITY\VC\TOOLS\MSVC\14.23.28105\INCLUDE\EMMINTRIN.H
C:\PROGRAM FILES (X86)\MICROSOFT VISUAL STUDIO\2019\COMMUNITY\VC\TOOLS\MSVC\14.23.28105\INCLUDE\XMMINTRIN.H
C:\PROGRAM FILES (X86)\MICROSOFT VISUAL STUDIO\2019\COMMUNITY\VC\TOOLS\MSVC\14.23.28105\INCLUDE\MMINTRIN.H
C:\PROGRAM FILES (X86)\MICROSOFT VISUAL STUDIO\2019\COMMUNITY\VC\TOOLS\MSVC\14.23.28105\INCLUDE\ZMMINTRIN.H
C:\PROGRAM FILES (X86)\MICROSOFT VISUAL STUDIO\2019\COMMUNITY\VC\TOOLS\MSVC\14.23.28105\INCLUDE\AMMINTRIN.H
C:\PROGRAM FILES (X86)\MICROSOFT VISUAL STUDIO\2019\COMMUNITY\VC\TOOLS\MSVC\14.23.28105\INCLUDE\MM3DNOW.H
D:\CLOUDSEM2\VCPKG-MASTER\INSTALLED\X86-WINDOWS\INCLUDE\GOOGLE\PROTOBUF\STUBS\MACROS.H
D:\CLOUDSEM2\VCPKG-MASTER\INSTALLED\X86-WINDOWS\INCLUDE\GOOGLE\PROTOBUF\STUBS\LOGGING.H
D:\CLOUDSEM2\VCPKG-MASTER\INSTALLED\X86-WINDOWS\INCLUDE\GOOGLE\PROTOBUF\STUBS\STRUTIL.H
D:\CLOUDSEM2\VCPKG-MASTER\INSTALLED\X86-WINDOWS\INCLUDE\GOOGLE\PROTOBUF\STUBS\STRINGPIECE.H
D:\CLOUDSEM2\VCPKG-MASTER\INSTALLED\X86-WINDOWS\INCLUDE\GOOGLE\PROTOBUF\STUBS\HASH.H
C:\PROGRAM FILES (X86)\MICROSOFT VISUAL STUDIO\2019\COMMUNITY\VC\TOOLS\MSVC\14.23.28105\INCLUDE\UNORDERED_MAP
C:\PROGRAM FILES (X86)\MICROSOFT VISUAL STUDIO\2019\COMMUNITY\VC\TOOLS\MSVC\14.23.28105\INCLUDE\XHASH
C:\PROGRAM FILES (X86)\MICROSOFT VISUAL STUDIO\2019\COMMUNITY\VC\TOOLS\MSVC\14.23.28105\INCLUDE\LIST
C:\PROGRAM FILES (X86)\MICROSOFT VISUAL STUDIO\2019\COMMUNITY\VC\TOOLS\MSVC\14.23.28105\INCLUDE\XBIT_OPS.H
C:\PROGRAM FILES (X86)\MICROSOFT VISUAL STUDIO\2019\COMMUNITY\VC\TOOLS\MSVC\14.23.28105\INCLUDE\UNORDERED_SET
D:\CLOUDSEM2\VCPKG-MASTER\INSTALLED\X86-WINDOWS\INCLUDE\GOOGLE\PROTOBUF\PORT.H
D:\CLOUDSEM2\VCPKG-MASTER\INSTALLED\X86-WINDOWS\INCLUDE\GOOGLE\PROTOBUF\ARENA.H
D:\CLOUDSEM2\VCPKG-MASTER\INSTALLED\X86-WINDOWS\INCLUDE\GOOGLE\PROTOBUF\ARENA_IMPL.H
D:\CLOUDSEM2\VCPKG-MASTER\INSTALLED\X86-WINDOWS\INCLUDE\GOOGLE\PROTOBUF\ARENASTRING.H
D:\CLOUDSEM2\VCPKG-MASTER\INSTALLED\X86-WINDOWS\INCLUDE\GOOGLE\PROTOBUF\STUBS\FASTMEM.H
D:\CLOUDSEM2\VCPKG-MASTER\INSTALLED\X86-WINDOWS\INCLUDE\GOOGLE\PROTOBUF\GENERATED_MESSAGE_TABLE_DRIVEN.H
D:\CLOUDSEM2\VCPKG-MASTER\INSTALLED\X86-WINDOWS\INCLUDE\GOOGLE\PROTOBUF\MAP.H
C:\PROGRAM FILES (X86)\MICROSOFT VISUAL STUDIO\2019\COMMUNITY\VC\TOOLS\MSVC\14.23.28105\INCLUDE\ITERATOR
D:\CLOUDSEM2\VCPKG-MASTER\INSTALLED\X86-WINDOWS\INCLUDE\GOOGLE\PROTOBUF\GENERATED_ENUM_UTIL.H
D:\CLOUDSEM2\VCPKG-MASTER\INSTALLED\X86-WINDOWS\INCLUDE\GOOGLE\PROTOBUF\MESSAGE_LITE.H
D:\CLOUDSEM2\VCPKG-MASTER\INSTALLED\X86-WINDOWS\INCLUDE\GOOGLE\PROTOBUF\STUBS\ONCE.H
C:\PROGRAM FILES (X86)\MICROSOFT VISUAL STUDIO\2019\COMMUNITY\VC\TOOLS\MSVC\14.23.28105\INCLUDE\MUTEX
C:\PROGRAM FILES (X86)\MICROSOFT VISUAL STUDIO\2019\COMMUNITY\VC\TOOLS\MSVC\14.23.28105\INCLUDE\CHRONO
C:\PROGRAM FILES (X86)\MICROSOFT VISUAL STUDIO\2019\COMMUNITY\VC\TOOLS\MSVC\14.23.28105\INCLUDE\RATIO
C:\PROGRAM FILES (X86)\MICROSOFT VISUAL STUDIO\2019\COMMUNITY\VC\TOOLS\MSVC\14.23.28105\INCLUDE\THR\XTIMEC.H
C:\PROGRAM FILES (X86)\WINDOWS KITS\10\INCLUDE\10.0.18362.0\UCRT\TIME.H
C:\PROGRAM FILES (X86)\MICROSOFT VISUAL STUDIO\2019\COMMUNITY\VC\TOOLS\MSVC\14.23.28105\INCLUDE\THREAD
C:\PROGRAM FILES (X86)\WINDOWS KITS\10\INCLUDE\10.0.18362.0\UCRT\PROCESS.H
C:\PROGRAM FILES (X86)\WINDOWS KITS\10\INCLUDE\10.0.18362.0\UCRT\CORECRT_STARTUP.H
C:\PROGRAM FILES (X86)\MICROSOFT VISUAL STUDIO\2019\COMMUNITY\VC\TOOLS\MSVC\14.23.28105\INCLUDE\VCRUNTIME_STARTUP.H
C:\PROGRAM FILES (X86)\MICROSOFT VISUAL STUDIO\2019\COMMUNITY\VC\TOOLS\MSVC\14.23.28105\INCLUDE\THR\XTHREADS.H
D:\CLOUDSEM2\VCPKG-MASTER\INSTALLED\X86-WINDOWS\INCLUDE\GOOGLE\PROTOBUF\MAP_TYPE_HANDLER.H
D:\CLOUDSEM2\VCPKG-MASTER\INSTALLED\X86-WINDOWS\INCLUDE\GOOGLE\PROTOBUF\PARSE_CONTEXT.H
D:\CLOUDSEM2\VCPKG-MASTER\INSTALLED\X86-WINDOWS\INCLUDE\GOOGLE\PROTOBUF\IO\ZERO_COPY_STREAM.H
D:\CLOUDSEM2\VCPKG-MASTER\INSTALLED\X86-WINDOWS\INCLUDE\GOOGLE\PROTOBUF\IMPLICIT_WEAK_MESSAGE.H
D:\CLOUDSEM2\VCPKG-MASTER\INSTALLED\X86-WINDOWS\INCLUDE\GOOGLE\PROTOBUF\REPEATED_FIELD.H
D:\CLOUDSEM2\VCPKG-MASTER\INSTALLED\X86-WINDOWS\INCLUDE\GOOGLE\PROTOBUF\STUBS\CASTS.H
D:\CLOUDSEM2\VCPKG-MASTER\INSTALLED\X86-WINDOWS\INCLUDE\GOOGLE\PROTOBUF\METADATA_LITE.H
D:\CLOUDSEM2\VCPKG-MASTER\INSTALLED\X86-WINDOWS\INCLUDE\GOOGLE\PROTOBUF\GENERATED_MESSAGE_UTIL.H
D:\CLOUDSEM2\VCPKG-MASTER\INSTALLED\X86-WINDOWS\INCLUDE\GOOGLE\PROTOBUF\ANY.H
D:\CLOUDSEM2\VCPKG-MASTER\INSTALLED\X86-WINDOWS\INCLUDE\GOOGLE\PROTOBUF\HAS_BITS.H
D:\CLOUDSEM2\VCPKG-MASTER\INSTALLED\X86-WINDOWS\INCLUDE\GOOGLE\PROTOBUF\WIRE_FORMAT_LITE.H
D:\CLOUDSEM2\VCPKG-MASTER\INSTALLED\X86-WINDOWS\INCLUDE\GOOGLE\PROTOBUF\MAP_ENTRY_LITE.H
D:\CLOUDSEM2\VCPKG-MASTER\INSTALLED\X86-WINDOWS\INCLUDE\GOOGLE\PROTOBUF\MAP_FIELD_LITE.H
D:\CLOUDSEM2\VCPKG-MASTER\INSTALLED\X86-WINDOWS\INCLUDE\GOOGLE\PROTOBUF\INLINED_STRING_FIELD.H
D:\CLOUDSEM2\VCPKG-MASTER\INSTALLED\X86-WINDOWS\INCLUDE\GOOGLE\PROTOBUF\METADATA.H
D:\CLOUDSEM2\VCPKG-MASTER\INSTALLED\X86-WINDOWS\INCLUDE\GOOGLE\PROTOBUF\UNKNOWN_FIELD_SET.H
D:\CLOUDSEM2\VCPKG-MASTER\INSTALLED\X86-WINDOWS\INCLUDE\GOOGLE\PROTOBUF\IO\ZERO_COPY_STREAM_IMPL_LITE.H
D:\CLOUDSEM2\VCPKG-MASTER\INSTALLED\X86-WINDOWS\INCLUDE\GOOGLE\PROTOBUF\STUBS\CALLBACK.H
D:\CLOUDSEM2\VCPKG-MASTER\INSTALLED\X86-WINDOWS\INCLUDE\GOOGLE\PROTOBUF\STUBS\STL_UTIL.H
D:\CLOUDSEM2\VCPKG-MASTER\INSTALLED\X86-WINDOWS\INCLUDE\GOOGLE\PROTOBUF\GENERATED_MESSAGE_REFLECTION.H
D:\CLOUDSEM2\VCPKG-MASTER\INSTALLED\X86-WINDOWS\INCLUDE\GOOGLE\PROTOBUF\DESCRIPTOR.H
D:\CLOUDSEM2\VCPKG-MASTER\INSTALLED\X86-WINDOWS\INCLUDE\GOOGLE\PROTOBUF\STUBS\MUTEX.H
D:\CLOUDSEM2\VCPKG-MASTER\INSTALLED\X86-WINDOWS\INCLUDE\GOOGLE\PROTOBUF\GENERATED_ENUM_REFLECTION.H
D:\CLOUDSEM2\VCPKG-MASTER\INSTALLED\X86-WINDOWS\INCLUDE\GOOGLE\PROTOBUF\EXTENSION_SET.H
C:\PROGRAM FILES (X86)\MICROSOFT VISUAL STUDIO\2019\COMMUNITY\VC\TOOLS\MSVC\14.23.28105\INCLUDE\CASSERT
D:\CLOUDTEMA2\GENERATED\DATARESPONSE.PB.H
D:\CLOUDSEM2\VCPKG-MASTER\INSTALLED\X86-WINDOWS\INCLUDE\GOOGLE\PROTOBUF\MESSAGE.H
D:\CLOUDTEMA2\GENERATED\DATAREQUEST.PB.H
C:\PROGRAM FILES (X86)\MICROSOFT VISUAL STUDIO\2019\COMMUNITY\VC\TOOLS\MSVC\14.23.28105\INCLUDE\FUNCTIONAL
D:\CLOUDSEM2\VCPKG-MASTER\INSTALLED\X86-WINDOWS\INCLUDE\GRPC\IMPL\CODEGEN\PORT_PLATFORM.H
C:\PROGRAM FILES (X86)\WINDOWS KITS\10\INCLUDE\10.0.18362.0\UM\WINDOWS.H
C:\PROGRAM FILES (X86)\WINDOWS KITS\10\INCLUDE\10.0.18362.0\SHARED\WINAPIFAMILY.H
C:\PROGRAM FILES (X86)\WINDOWS KITS\10\INCLUDE\10.0.18362.0\SHARED\WINPACKAGEFAMILY.H
C:\PROGRAM FILES (X86)\WINDOWS KITS\10\INCLUDE\10.0.18362.0\SHARED\SDKDDKVER.H
C:\PROGRAM FILES (X86)\MICROSOFT VISUAL STUDIO\2019\COMMUNITY\VC\TOOLS\MSVC\14.23.28105\INCLUDE\EXCPT.H
C:\PROGRAM FILES (X86)\MICROSOFT VISUAL STUDIO\2019\COMMUNITY\VC\TOOLS\MSVC\14.23.28105\INCLUDE\STDARG.H
C:\PROGRAM FILES (X86)\WINDOWS KITS\10\INCLUDE\10.0.18362.0\SHARED\WINDEF.H
C:\PROGRAM FILES (X86)\WINDOWS KITS\10\INCLUDE\10.0.18362.0\SHARED\MINWINDEF.H
C:\PROGRAM FILES (X86)\WINDOWS KITS\10\INCLUDE\10.0.18362.0\SHARED\SPECSTRINGS.H
C:\PROGRAM FILES (X86)\WINDOWS KITS\10\INCLUDE\10.0.18362.0\SHARED\SPECSTRINGS_STRICT.H
C:\PROGRAM FILES (X86)\WINDOWS KITS\10\INCLUDE\10.0.18362.0\SHARED\SPECSTRINGS_UNDEF.H
C:\PROGRAM FILES (X86)\WINDOWS KITS\10\INCLUDE\10.0.18362.0\SHARED\DRIVERSPECS.H
C:\PROGRAM FILES (X86)\WINDOWS KITS\10\INCLUDE\10.0.18362.0\SHARED\SDV_DRIVERSPECS.H
C:\PROGRAM FILES (X86)\WINDOWS KITS\10\INCLUDE\10.0.18362.0\UM\WINNT.H
C:\PROGRAM FILES (X86)\WINDOWS KITS\10\INCLUDE\10.0.18362.0\SHARED\KERNELSPECS.H
C:\PROGRAM FILES (X86)\WINDOWS KITS\10\INCLUDE\10.0.18362.0\SHARED\BASETSD.H
C:\PROGRAM FILES (X86)\WINDOWS KITS\10\INCLUDE\10.0.18362.0\SHARED\GUIDDEF.H
C:\PROGRAM FILES (X86)\WINDOWS KITS\10\INCLUDE\10.0.18362.0\SHARED\PSHPACK4.H
C:\PROGRAM FILES (X86)\WINDOWS KITS\10\INCLUDE\10.0.18362.0\SHARED\POPPACK.H
C:\PROGRAM FILES (X86)\WINDOWS KITS\10\INCLUDE\10.0.18362.0\SHARED\PSHPACK2.H
C:\PROGRAM FILES (X86)\WINDOWS KITS\10\INCLUDE\10.0.18362.0\SHARED\PSHPACK8.H
C:\PROGRAM FILES (X86)\WINDOWS KITS\10\INCLUDE\10.0.18362.0\SHARED\PSHPACK1.H
C:\PROGRAM FILES (X86)\WINDOWS KITS\10\INCLUDE\10.0.18362.0\SHARED\APISET.H
C:\PROGRAM FILES (X86)\WINDOWS KITS\10\INCLUDE\10.0.18362.0\SHARED\KTMTYPES.H
C:\PROGRAM FILES (X86)\WINDOWS KITS\10\INCLUDE\10.0.18362.0\UM\WINBASE.H
C:\PROGRAM FILES (X86)\WINDOWS KITS\10\INCLUDE\10.0.18362.0\SHARED\APISETCCONV.H
C:\PROGRAM FILES (X86)\WINDOWS KITS\10\INCLUDE\10.0.18362.0\UM\MINWINBASE.H
C:\PROGRAM FILES (X86)\WINDOWS KITS\10\INCLUDE\10.0.18362.0\UM\APIQUERY2.H
C:\PROGRAM FILES (X86)\WINDOWS KITS\10\INCLUDE\10.0.18362.0\UM\PROCESSENV.H
C:\PROGRAM FILES (X86)\WINDOWS KITS\10\INCLUDE\10.0.18362.0\UM\FILEAPIFROMAPP.H
C:\PROGRAM FILES (X86)\WINDOWS KITS\10\INCLUDE\10.0.18362.0\UM\FILEAPI.H
C:\PROGRAM FILES (X86)\WINDOWS KITS\10\INCLUDE\10.0.18362.0\UM\DEBUGAPI.H
C:\PROGRAM FILES (X86)\WINDOWS KITS\10\INCLUDE\10.0.18362.0\UM\UTILAPISET.H
C:\PROGRAM FILES (X86)\WINDOWS KITS\10\INCLUDE\10.0.18362.0\UM\HANDLEAPI.H
C:\PROGRAM FILES (X86)\WINDOWS KITS\10\INCLUDE\10.0.18362.0\UM\ERRHANDLINGAPI.H
C:\PROGRAM FILES (X86)\WINDOWS KITS\10\INCLUDE\10.0.18362.0\UM\FIBERSAPI.H
C:\PROGRAM FILES (X86)\WINDOWS KITS\10\INCLUDE\10.0.18362.0\UM\NAMEDPIPEAPI.H
C:\PROGRAM FILES (X86)\WINDOWS KITS\10\INCLUDE\10.0.18362.0\UM\PROFILEAPI.H
C:\PROGRAM FILES (X86)\WINDOWS KITS\10\INCLUDE\10.0.18362.0\UM\HEAPAPI.H
C:\PROGRAM FILES (X86)\WINDOWS KITS\10\INCLUDE\10.0.18362.0\UM\IOAPISET.H
C:\PROGRAM FILES (X86)\WINDOWS KITS\10\INCLUDE\10.0.18362.0\UM\SYNCHAPI.H
C:\PROGRAM FILES (X86)\WINDOWS KITS\10\INCLUDE\10.0.18362.0\UM\INTERLOCKEDAPI.H
C:\PROGRAM FILES (X86)\WINDOWS KITS\10\INCLUDE\10.0.18362.0\UM\PROCESSTHREADSAPI.H
C:\PROGRAM FILES (X86)\WINDOWS KITS\10\INCLUDE\10.0.18362.0\UM\SYSINFOAPI.H
C:\PROGRAM FILES (X86)\WINDOWS KITS\10\INCLUDE\10.0.18362.0\UM\MEMORYAPI.H
C:\PROGRAM FILES (X86)\WINDOWS KITS\10\INCLUDE\10.0.18362.0\UM\ENCLAVEAPI.H
C:\PROGRAM FILES (X86)\WINDOWS KITS\10\INCLUDE\10.0.18362.0\UM\THREADPOOLLEGACYAPISET.H
C:\PROGRAM FILES (X86)\WINDOWS KITS\10\INCLUDE\10.0.18362.0\UM\THREADPOOLAPISET.H
C:\PROGRAM FILES (X86)\WINDOWS KITS\10\INCLUDE\10.0.18362.0\UM\JOBAPI.H
C:\PROGRAM FILES (X86)\WINDOWS KITS\10\INCLUDE\10.0.18362.0\UM\JOBAPI2.H
C:\PROGRAM FILES (X86)\WINDOWS KITS\10\INCLUDE\10.0.18362.0\UM\WOW64APISET.H
C:\PROGRAM FILES (X86)\WINDOWS KITS\10\INCLUDE\10.0.18362.0\UM\LIBLOADERAPI.H
C:\PROGRAM FILES (X86)\WINDOWS KITS\10\INCLUDE\10.0.18362.0\UM\SECURITYBASEAPI.H
C:\PROGRAM FILES (X86)\WINDOWS KITS\10\INCLUDE\10.0.18362.0\UM\NAMESPACEAPI.H
C:\PROGRAM FILES (X86)\WINDOWS KITS\10\INCLUDE\10.0.18362.0\UM\SYSTEMTOPOLOGYAPI.H
C:\PROGRAM FILES (X86)\WINDOWS KITS\10\INCLUDE\10.0.18362.0\UM\PROCESSTOPOLOGYAPI.H
C:\PROGRAM FILES (X86)\WINDOWS KITS\10\INCLUDE\10.0.18362.0\UM\SECURITYAPPCONTAINER.H
C:\PROGRAM FILES (X86)\WINDOWS KITS\10\INCLUDE\10.0.18362.0\UM\REALTIMEAPISET.H
C:\PROGRAM FILES (X86)\WINDOWS KITS\10\INCLUDE\10.0.18362.0\SHARED\WINERROR.H
C:\PROGRAM FILES (X86)\WINDOWS KITS\10\INCLUDE\10.0.18362.0\UM\TIMEZONEAPI.H
C:\PROGRAM FILES (X86)\WINDOWS KITS\10\INCLUDE\10.0.18362.0\UM\WINGDI.H
C:\PROGRAM FILES (X86)\WINDOWS KITS\10\INCLUDE\10.0.18362.0\UM\WINUSER.H
C:\PROGRAM FILES (X86)\WINDOWS KITS\10\INCLUDE\10.0.18362.0\SHARED\TVOUT.H
C:\PROGRAM FILES (X86)\WINDOWS KITS\10\INCLUDE\10.0.18362.0\UM\WINNLS.H
C:\PROGRAM FILES (X86)\WINDOWS KITS\10\INCLUDE\10.0.18362.0\UM\DATETIMEAPI.H
C:\PROGRAM FILES (X86)\WINDOWS KITS\10\INCLUDE\10.0.18362.0\UM\STRINGAPISET.H
C:\PROGRAM FILES (X86)\WINDOWS KITS\10\INCLUDE\10.0.18362.0\UM\WINCON.H
C:\PROGRAM FILES (X86)\WINDOWS KITS\10\INCLUDE\10.0.18362.0\UM\WINCONTYPES.H
C:\PROGRAM FILES (X86)\WINDOWS KITS\10\INCLUDE\10.0.18362.0\UM\CONSOLEAPI.H
C:\PROGRAM FILES (X86)\WINDOWS KITS\10\INCLUDE\10.0.18362.0\UM\CONSOLEAPI2.H
C:\PROGRAM FILES (X86)\WINDOWS KITS\10\INCLUDE\10.0.18362.0\UM\CONSOLEAPI3.H
C:\PROGRAM FILES (X86)\WINDOWS KITS\10\INCLUDE\10.0.18362.0\UM\WINVER.H
C:\PROGRAM FILES (X86)\WINDOWS KITS\10\INCLUDE\10.0.18362.0\UM\VERRSRC.H
C:\PROGRAM FILES (X86)\WINDOWS KITS\10\INCLUDE\10.0.18362.0\UM\WINREG.H
C:\PROGRAM FILES (X86)\WINDOWS KITS\10\INCLUDE\10.0.18362.0\UM\REASON.H
C:\PROGRAM FILES (X86)\WINDOWS KITS\10\INCLUDE\10.0.18362.0\UM\WINNETWK.H
C:\PROGRAM FILES (X86)\WINDOWS KITS\10\INCLUDE\10.0.18362.0\SHARED\WNNC.H
C:\PROGRAM FILES (X86)\WINDOWS KITS\10\INCLUDE\10.0.18362.0\SHARED\STRALIGN.H
C:\PROGRAM FILES (X86)\WINDOWS KITS\10\INCLUDE\10.0.18362.0\UM\WINSVC.H
C:\PROGRAM FILES (X86)\WINDOWS KITS\10\INCLUDE\10.0.18362.0\UM\MCX.H
C:\PROGRAM FILES (X86)\WINDOWS KITS\10\INCLUDE\10.0.18362.0\UM\IMM.H
C:\PROGRAM FILES (X86)\WINDOWS KITS\10\INCLUDE\10.0.18362.0\UM\IME_CMODES.H
D:\CLOUDSEM2\VCPKG-MASTER\INSTALLED\X86-WINDOWS\INCLUDE\GRPCPP\IMPL\CODEGEN\ASYNC_GENERIC_SERVICE.H
D:\CLOUDSEM2\VCPKG-MASTER\INSTALLED\X86-WINDOWS\INCLUDE\GRPCPP\IMPL\CODEGEN\ASYNC_STREAM_IMPL.H
D:\CLOUDSEM2\VCPKG-MASTER\INSTALLED\X86-WINDOWS\INCLUDE\GRPCPP\IMPL\CODEGEN\CALL.H
D:\CLOUDSEM2\VCPKG-MASTER\INSTALLED\X86-WINDOWS\INCLUDE\GRPC\IMPL\CODEGEN\GRPC_TYPES.H
D:\CLOUDSEM2\VCPKG-MASTER\INSTALLED\X86-WINDOWS\INCLUDE\GRPC\IMPL\CODEGEN\COMPRESSION_TYPES.H
D:\CLOUDSEM2\VCPKG-MASTER\INSTALLED\X86-WINDOWS\INCLUDE\GRPC\IMPL\CODEGEN\GPR_TYPES.H
D:\CLOUDSEM2\VCPKG-MASTER\INSTALLED\X86-WINDOWS\INCLUDE\GRPC\IMPL\CODEGEN\SLICE.H
D:\CLOUDSEM2\VCPKG-MASTER\INSTALLED\X86-WINDOWS\INCLUDE\GRPC\IMPL\CODEGEN\GPR_SLICE.H
D:\CLOUDSEM2\VCPKG-MASTER\INSTALLED\X86-WINDOWS\INCLUDE\GRPC\IMPL\CODEGEN\STATUS.H
D:\CLOUDSEM2\VCPKG-MASTER\INSTALLED\X86-WINDOWS\INCLUDE\GRPCPP\IMPL\CODEGEN\CALL_HOOK.H
D:\CLOUDSEM2\VCPKG-MASTER\INSTALLED\X86-WINDOWS\INCLUDE\GRPCPP\IMPL\CODEGEN\CHANNEL_INTERFACE.H
D:\CLOUDSEM2\VCPKG-MASTER\INSTALLED\X86-WINDOWS\INCLUDE\GRPC\IMPL\CODEGEN\CONNECTIVITY_STATE.H
D:\CLOUDSEM2\VCPKG-MASTER\INSTALLED\X86-WINDOWS\INCLUDE\GRPCPP\IMPL\CODEGEN\STATUS.H
D:\CLOUDSEM2\VCPKG-MASTER\INSTALLED\X86-WINDOWS\INCLUDE\GRPCPP\IMPL\CODEGEN\CONFIG.H
D:\CLOUDSEM2\VCPKG-MASTER\INSTALLED\X86-WINDOWS\INCLUDE\GRPCPP\IMPL\CODEGEN\STATUS_CODE_ENUM.H
D:\CLOUDSEM2\VCPKG-MASTER\INSTALLED\X86-WINDOWS\INCLUDE\GRPCPP\IMPL\CODEGEN\TIME.H
D:\CLOUDSEM2\VCPKG-MASTER\INSTALLED\X86-WINDOWS\INCLUDE\GRPCPP\IMPL\CODEGEN\CORE_CODEGEN_INTERFACE.H
D:\CLOUDSEM2\VCPKG-MASTER\INSTALLED\X86-WINDOWS\INCLUDE\GRPC\IMPL\CODEGEN\BYTE_BUFFER.H
D:\CLOUDSEM2\VCPKG-MASTER\INSTALLED\X86-WINDOWS\INCLUDE\GRPC\IMPL\CODEGEN\BYTE_BUFFER_READER.H
D:\CLOUDSEM2\VCPKG-MASTER\INSTALLED\X86-WINDOWS\INCLUDE\GRPC\IMPL\CODEGEN\SYNC.H
D:\CLOUDSEM2\VCPKG-MASTER\INSTALLED\X86-WINDOWS\INCLUDE\GRPC\IMPL\CODEGEN\SYNC_GENERIC.H
D:\CLOUDSEM2\VCPKG-MASTER\INSTALLED\X86-WINDOWS\INCLUDE\GRPC\IMPL\CODEGEN\ATM.H
D:\CLOUDSEM2\VCPKG-MASTER\INSTALLED\X86-WINDOWS\INCLUDE\GRPC\IMPL\CODEGEN\ATM_WINDOWS.H
D:\CLOUDSEM2\VCPKG-MASTER\INSTALLED\X86-WINDOWS\INCLUDE\GRPC\IMPL\CODEGEN\SYNC_WINDOWS.H
D:\CLOUDSEM2\VCPKG-MASTER\INSTALLED\X86-WINDOWS\INCLUDE\GRPCPP\IMPL\CODEGEN\SERVER_CONTEXT_IMPL.H
D:\CLOUDSEM2\VCPKG-MASTER\INSTALLED\X86-WINDOWS\INCLUDE\GRPCPP\IMPL\CODEGEN\CALL_OP_SET.H
D:\CLOUDSEM2\VCPKG-MASTER\INSTALLED\X86-WINDOWS\INCLUDE\GRPCPP\IMPL\CODEGEN\BYTE_BUFFER.H
D:\CLOUDSEM2\VCPKG-MASTER\INSTALLED\X86-WINDOWS\INCLUDE\GRPCPP\IMPL\CODEGEN\SERIALIZATION_TRAITS.H
D:\CLOUDSEM2\VCPKG-MASTER\INSTALLED\X86-WINDOWS\INCLUDE\GRPCPP\IMPL\CODEGEN\SLICE.H
D:\CLOUDSEM2\VCPKG-MASTER\INSTALLED\X86-WINDOWS\INCLUDE\GRPCPP\IMPL\CODEGEN\STRING_REF.H
D:\CLOUDSEM2\VCPKG-MASTER\INSTALLED\X86-WINDOWS\INCLUDE\GRPCPP\IMPL\CODEGEN\CALL_OP_SET_INTERFACE.H
D:\CLOUDSEM2\VCPKG-MASTER\INSTALLED\X86-WINDOWS\INCLUDE\GRPCPP\IMPL\CODEGEN\COMPLETION_QUEUE_TAG.H
D:\CLOUDSEM2\VCPKG-MASTER\INSTALLED\X86-WINDOWS\INCLUDE\GRPCPP\IMPL\CODEGEN\CLIENT_CONTEXT_IMPL.H
D:\CLOUDSEM2\VCPKG-MASTER\INSTALLED\X86-WINDOWS\INCLUDE\GRPC\IMPL\CODEGEN\PROPAGATION_BITS.H
D:\CLOUDSEM2\VCPKG-MASTER\INSTALLED\X86-WINDOWS\INCLUDE\GRPCPP\IMPL\CODEGEN\CLIENT_INTERCEPTOR.H
D:\CLOUDSEM2\VCPKG-MASTER\INSTALLED\X86-WINDOWS\INCLUDE\GRPCPP\IMPL\CODEGEN\INTERCEPTOR.H
D:\CLOUDSEM2\VCPKG-MASTER\INSTALLED\X86-WINDOWS\INCLUDE\GRPCPP\IMPL\CODEGEN\METADATA_MAP.H
D:\CLOUDSEM2\VCPKG-MASTER\INSTALLED\X86-WINDOWS\INCLUDE\GRPC\IMPL\CODEGEN\LOG.H
D:\CLOUDSEM2\VCPKG-MASTER\INSTALLED\X86-WINDOWS\INCLUDE\GRPCPP\IMPL\CODEGEN\RPC_METHOD.H
D:\CLOUDSEM2\VCPKG-MASTER\INSTALLED\X86-WINDOWS\INCLUDE\GRPCPP\IMPL\CODEGEN\CREATE_AUTH_CONTEXT.H
D:\CLOUDSEM2\VCPKG-MASTER\INSTALLED\X86-WINDOWS\INCLUDE\GRPCPP\IMPL\CODEGEN\SECURITY\AUTH_CONTEXT.H
D:\CLOUDSEM2\VCPKG-MASTER\INSTALLED\X86-WINDOWS\INCLUDE\GRPCPP\IMPL\CODEGEN\SYNC.H
D:\CLOUDSEM2\VCPKG-MASTER\INSTALLED\X86-WINDOWS\INCLUDE\GRPCPP\IMPL\CODEGEN\COMPLETION_QUEUE_IMPL.H
D:\CLOUDSEM2\VCPKG-MASTER\INSTALLED\X86-WINDOWS\INCLUDE\GRPCPP\IMPL\CODEGEN\GRPC_LIBRARY.H
D:\CLOUDSEM2\VCPKG-MASTER\INSTALLED\X86-WINDOWS\INCLUDE\GRPCPP\IMPL\CODEGEN\INTERCEPTED_CHANNEL.H
D:\CLOUDSEM2\VCPKG-MASTER\INSTALLED\X86-WINDOWS\INCLUDE\GRPCPP\IMPL\CODEGEN\INTERCEPTOR_COMMON.H
C:\PROGRAM FILES (X86)\MICROSOFT VISUAL STUDIO\2019\COMMUNITY\VC\TOOLS\MSVC\14.23.28105\INCLUDE\ARRAY
D:\CLOUDSEM2\VCPKG-MASTER\INSTALLED\X86-WINDOWS\INCLUDE\GRPCPP\IMPL\CODEGEN\SERVER_INTERCEPTOR.H
D:\CLOUDSEM2\VCPKG-MASTER\INSTALLED\X86-WINDOWS\INCLUDE\GRPCPP\IMPL\CODEGEN\CALLBACK_COMMON.H
D:\CLOUDSEM2\VCPKG-MASTER\INSTALLED\X86-WINDOWS\INCLUDE\GRPCPP\IMPL\CODEGEN\MESSAGE_ALLOCATOR.H
D:\CLOUDSEM2\VCPKG-MASTER\INSTALLED\X86-WINDOWS\INCLUDE\GRPCPP\IMPL\CODEGEN\SERVER_CALLBACK_IMPL.H
D:\CLOUDSEM2\VCPKG-MASTER\INSTALLED\X86-WINDOWS\INCLUDE\GRPCPP\IMPL\CODEGEN\SERVICE_TYPE.H
D:\CLOUDSEM2\VCPKG-MASTER\INSTALLED\X86-WINDOWS\INCLUDE\GRPCPP\IMPL\CODEGEN\RPC_SERVICE_METHOD.H
D:\CLOUDSEM2\VCPKG-MASTER\INSTALLED\X86-WINDOWS\INCLUDE\GRPCPP\IMPL\CODEGEN\SERVER_INTERFACE.H
D:\CLOUDSEM2\VCPKG-MASTER\INSTALLED\X86-WINDOWS\INCLUDE\GRPCPP\IMPL\CODEGEN\SERVER_CALLBACK_HANDLERS.H
D:\CLOUDSEM2\VCPKG-MASTER\INSTALLED\X86-WINDOWS\INCLUDE\GRPCPP\IMPL\CODEGEN\ASYNC_STREAM.H
D:\CLOUDSEM2\VCPKG-MASTER\INSTALLED\X86-WINDOWS\INCLUDE\GRPCPP\IMPL\CODEGEN\ASYNC_UNARY_CALL.H
D:\CLOUDSEM2\VCPKG-MASTER\INSTALLED\X86-WINDOWS\INCLUDE\GRPCPP\IMPL\CODEGEN\ASYNC_UNARY_CALL_IMPL.H
D:\CLOUDSEM2\VCPKG-MASTER\INSTALLED\X86-WINDOWS\INCLUDE\GRPCPP\IMPL\CODEGEN\CLIENT_CALLBACK.H
D:\CLOUDSEM2\VCPKG-MASTER\INSTALLED\X86-WINDOWS\INCLUDE\GRPCPP\IMPL\CODEGEN\CLIENT_CALLBACK_IMPL.H
D:\CLOUDSEM2\VCPKG-MASTER\INSTALLED\X86-WINDOWS\INCLUDE\GRPCPP\IMPL\CODEGEN\CLIENT_CONTEXT.H
D:\CLOUDSEM2\VCPKG-MASTER\INSTALLED\X86-WINDOWS\INCLUDE\GRPCPP\IMPL\CODEGEN\COMPLETION_QUEUE.H
D:\CLOUDSEM2\VCPKG-MASTER\INSTALLED\X86-WINDOWS\INCLUDE\GRPCPP\IMPL\CODEGEN\METHOD_HANDLER.H
D:\CLOUDSEM2\VCPKG-MASTER\INSTALLED\X86-WINDOWS\INCLUDE\GRPCPP\IMPL\CODEGEN\METHOD_HANDLER_IMPL.H
D:\CLOUDSEM2\VCPKG-MASTER\INSTALLED\X86-WINDOWS\INCLUDE\GRPCPP\IMPL\CODEGEN\SYNC_STREAM_IMPL.H
D:\CLOUDSEM2\VCPKG-MASTER\INSTALLED\X86-WINDOWS\INCLUDE\GRPCPP\IMPL\CODEGEN\PROTO_UTILS.H
D:\CLOUDSEM2\VCPKG-MASTER\INSTALLED\X86-WINDOWS\INCLUDE\GRPCPP\IMPL\CODEGEN\CONFIG_PROTOBUF.H
D:\CLOUDSEM2\VCPKG-MASTER\INSTALLED\X86-WINDOWS\INCLUDE\GOOGLE\PROTOBUF\DESCRIPTOR.PB.H
D:\CLOUDSEM2\VCPKG-MASTER\INSTALLED\X86-WINDOWS\INCLUDE\GOOGLE\PROTOBUF\DESCRIPTOR_DATABASE.H
D:\CLOUDSEM2\VCPKG-MASTER\INSTALLED\X86-WINDOWS\INCLUDE\GOOGLE\PROTOBUF\UTIL\JSON_UTIL.H
D:\CLOUDSEM2\VCPKG-MASTER\INSTALLED\X86-WINDOWS\INCLUDE\GOOGLE\PROTOBUF\UTIL\TYPE_RESOLVER.H
D:\CLOUDSEM2\VCPKG-MASTER\INSTALLED\X86-WINDOWS\INCLUDE\GOOGLE\PROTOBUF\TYPE.PB.H
D:\CLOUDSEM2\VCPKG-MASTER\INSTALLED\X86-WINDOWS\INCLUDE\GOOGLE\PROTOBUF\ANY.PB.H
D:\CLOUDSEM2\VCPKG-MASTER\INSTALLED\X86-WINDOWS\INCLUDE\GOOGLE\PROTOBUF\SOURCE_CONTEXT.PB.H
D:\CLOUDSEM2\VCPKG-MASTER\INSTALLED\X86-WINDOWS\INCLUDE\GOOGLE\PROTOBUF\STUBS\STATUS.H
D:\CLOUDSEM2\VCPKG-MASTER\INSTALLED\X86-WINDOWS\INCLUDE\GOOGLE\PROTOBUF\STUBS\BYTESTREAM.H
D:\CLOUDSEM2\VCPKG-MASTER\INSTALLED\X86-WINDOWS\INCLUDE\GRPCPP\IMPL\CODEGEN\PROTO_BUFFER_READER.H
D:\CLOUDSEM2\VCPKG-MASTER\INSTALLED\X86-WINDOWS\INCLUDE\GRPCPP\IMPL\CODEGEN\PROTO_BUFFER_WRITER.H
D:\CLOUDSEM2\VCPKG-MASTER\INSTALLED\X86-WINDOWS\INCLUDE\GRPCPP\IMPL\CODEGEN\SERVER_CALLBACK.H
D:\CLOUDSEM2\VCPKG-MASTER\INSTALLED\X86-WINDOWS\INCLUDE\GRPCPP\IMPL\CODEGEN\SERVER_CONTEXT.H
D:\CLOUDSEM2\VCPKG-MASTER\INSTALLED\X86-WINDOWS\INCLUDE\GRPCPP\IMPL\CODEGEN\STUB_OPTIONS.H
D:\CLOUDSEM2\VCPKG-MASTER\INSTALLED\X86-WINDOWS\INCLUDE\GRPCPP\IMPL\CODEGEN\SYNC_STREAM.H
^D:\CLOUDTEMA2\GENERATED\SERVER\SERVER.CPP
C:\PROGRAM FILES (X86)\MICROSOFT VISUAL STUDIO\2019\COMMUNITY\VC\TOOLS\MSVC\14.23.28105\INCLUDE\IOSTREAM
C:\PROGRAM FILES (X86)\MICROSOFT VISUAL STUDIO\2019\COMMUNITY\VC\TOOLS\MSVC\14.23.28105\INCLUDE\YVALS_CORE.H
C:\PROGRAM FILES (X86)\MICROSOFT VISUAL STUDIO\2019\COMMUNITY\VC\TOOLS\MSVC\14.23.28105\INCLUDE\CRTDEFS.H
C:\PROGRAM FILES (X86)\MICROSOFT VISUAL STUDIO\2019\COMMUNITY\VC\TOOLS\MSVC\14.23.28105\INCLUDE\VCRUNTIME.H
C:\PROGRAM FILES (X86)\MICROSOFT VISUAL STUDIO\2019\COMMUNITY\VC\TOOLS\MSVC\14.23.28105\INCLUDE\SAL.H
C:\PROGRAM FILES (X86)\MICROSOFT VISUAL STUDIO\2019\COMMUNITY\VC\TOOLS\MSVC\14.23.28105\INCLUDE\CONCURRENCYSAL.H
C:\PROGRAM FILES (X86)\MICROSOFT VISUAL STUDIO\2019\COMMUNITY\VC\TOOLS\MSVC\14.23.28105\INCLUDE\VADEFS.H
C:\PROGRAM FILES (X86)\WINDOWS KITS\10\INCLUDE\10.0.18362.0\UCRT\CORECRT.H
C:\PROGRAM FILES (X86)\MICROSOFT VISUAL STUDIO\2019\COMMUNITY\VC\TOOLS\MSVC\14.23.28105\INCLUDE\XKEYCHECK.H
C:\PROGRAM FILES (X86)\MICROSOFT VISUAL STUDIO\2019\COMMUNITY\VC\TOOLS\MSVC\14.23.28105\INCLUDE\ISTREAM
C:\PROGRAM FILES (X86)\MICROSOFT VISUAL STUDIO\2019\COMMUNITY\VC\TOOLS\MSVC\14.23.28105\INCLUDE\OSTREAM
C:\PROGRAM FILES (X86)\MICROSOFT VISUAL STUDIO\2019\COMMUNITY\VC\TOOLS\MSVC\14.23.28105\INCLUDE\IOS
C:\PROGRAM FILES (X86)\MICROSOFT VISUAL STUDIO\2019\COMMUNITY\VC\TOOLS\MSVC\14.23.28105\INCLUDE\XLOCNUM
C:\PROGRAM FILES (X86)\MICROSOFT VISUAL STUDIO\2019\COMMUNITY\VC\TOOLS\MSVC\14.23.28105\INCLUDE\CLIMITS
C:\PROGRAM FILES (X86)\MICROSOFT VISUAL STUDIO\2019\COMMUNITY\VC\TOOLS\MSVC\14.23.28105\INCLUDE\LIMITS.H
C:\PROGRAM FILES (X86)\MICROSOFT VISUAL STUDIO\2019\COMMUNITY\VC\TOOLS\MSVC\14.23.28105\INCLUDE\CMATH
C:\PROGRAM FILES (X86)\MICROSOFT VISUAL STUDIO\2019\COMMUNITY\VC\TOOLS\MSVC\14.23.28105\INCLUDE\YVALS.H
C:\PROGRAM FILES (X86)\WINDOWS KITS\10\INCLUDE\10.0.18362.0\UCRT\CRTDBG.H
C:\PROGRAM FILES (X86)\MICROSOFT VISUAL STUDIO\2019\COMMUNITY\VC\TOOLS\MSVC\14.23.28105\INCLUDE\VCRUNTIME_NEW_DEBUG.H
C:\PROGRAM FILES (X86)\MICROSOFT VISUAL STUDIO\2019\COMMUNITY\VC\TOOLS\MSVC\14.23.28105\INCLUDE\VCRUNTIME_NEW.H
C:\PROGRAM FILES (X86)\MICROSOFT VISUAL STUDIO\2019\COMMUNITY\VC\TOOLS\MSVC\14.23.28105\INCLUDE\USE_ANSI.H
C:\PROGRAM FILES (X86)\MICROSOFT VISUAL STUDIO\2019\COMMUNITY\VC\TOOLS\MSVC\14.23.28105\INCLUDE\CSTDLIB
C:\PROGRAM FILES (X86)\WINDOWS KITS\10\INCLUDE\10.0.18362.0\UCRT\MATH.H
C:\PROGRAM FILES (X86)\WINDOWS KITS\10\INCLUDE\10.0.18362.0\UCRT\CORECRT_MATH.H
C:\PROGRAM FILES (X86)\WINDOWS KITS\10\INCLUDE\10.0.18362.0\UCRT\STDLIB.H
C:\PROGRAM FILES (X86)\WINDOWS KITS\10\INCLUDE\10.0.18362.0\UCRT\CORECRT_MALLOC.H
C:\PROGRAM FILES (X86)\WINDOWS KITS\10\INCLUDE\10.0.18362.0\UCRT\CORECRT_SEARCH.H
C:\PROGRAM FILES (X86)\WINDOWS KITS\10\INCLUDE\10.0.18362.0\UCRT\STDDEF.H
C:\PROGRAM FILES (X86)\WINDOWS KITS\10\INCLUDE\10.0.18362.0\UCRT\CORECRT_WSTDLIB.H
C:\PROGRAM FILES (X86)\MICROSOFT VISUAL STUDIO\2019\COMMUNITY\VC\TOOLS\MSVC\14.23.28105\INCLUDE\XTGMATH.H
C:\PROGRAM FILES (X86)\MICROSOFT VISUAL STUDIO\2019\COMMUNITY\VC\TOOLS\MSVC\14.23.28105\INCLUDE\XTR1COMMON
C:\PROGRAM FILES (X86)\MICROSOFT VISUAL STUDIO\2019\COMMUNITY\VC\TOOLS\MSVC\14.23.28105\INCLUDE\CSTDIO
C:\PROGRAM FILES (X86)\WINDOWS KITS\10\INCLUDE\10.0.18362.0\UCRT\STDIO.H
C:\PROGRAM FILES (X86)\WINDOWS KITS\10\INCLUDE\10.0.18362.0\UCRT\CORECRT_WSTDIO.H
C:\PROGRAM FILES (X86)\WINDOWS KITS\10\INCLUDE\10.0.18362.0\UCRT\CORECRT_STDIO_CONFIG.H
C:\PROGRAM FILES (X86)\MICROSOFT VISUAL STUDIO\2019\COMMUNITY\VC\TOOLS\MSVC\14.23.28105\INCLUDE\STREAMBUF
C:\PROGRAM FILES (X86)\MICROSOFT VISUAL STUDIO\2019\COMMUNITY\VC\TOOLS\MSVC\14.23.28105\INCLUDE\XIOSBASE
C:\PROGRAM FILES (X86)\WINDOWS KITS\10\INCLUDE\10.0.18362.0\UCRT\SHARE.H
C:\PROGRAM FILES (X86)\WINDOWS KITS\10\INCLUDE\10.0.18362.0\UCRT\CORECRT_SHARE.H
C:\PROGRAM FILES (X86)\MICROSOFT VISUAL STUDIO\2019\COMMUNITY\VC\TOOLS\MSVC\14.23.28105\INCLUDE\SYSTEM_ERROR
C:\PROGRAM FILES (X86)\MICROSOFT VISUAL STUDIO\2019\COMMUNITY\VC\TOOLS\MSVC\14.23.28105\INCLUDE\CERRNO
C:\PROGRAM FILES (X86)\WINDOWS KITS\10\INCLUDE\10.0.18362.0\UCRT\ERRNO.H
C:\PROGRAM FILES (X86)\MICROSOFT VISUAL STUDIO\2019\COMMUNITY\VC\TOOLS\MSVC\14.23.28105\INCLUDE\STDEXCEPT
C:\PROGRAM FILES (X86)\MICROSOFT VISUAL STUDIO\2019\COMMUNITY\VC\TOOLS\MSVC\14.23.28105\INCLUDE\EXCEPTION
C:\PROGRAM FILES (X86)\MICROSOFT VISUAL STUDIO\2019\COMMUNITY\VC\TOOLS\MSVC\14.23.28105\INCLUDE\TYPE_TRAITS
C:\PROGRAM FILES (X86)\MICROSOFT VISUAL STUDIO\2019\COMMUNITY\VC\TOOLS\MSVC\14.23.28105\INCLUDE\XSTDDEF
C:\PROGRAM FILES (X86)\MICROSOFT VISUAL STUDIO\2019\COMMUNITY\VC\TOOLS\MSVC\14.23.28105\INCLUDE\CSTDDEF
C:\PROGRAM FILES (X86)\MICROSOFT VISUAL STUDIO\2019\COMMUNITY\VC\TOOLS\MSVC\14.23.28105\INCLUDE\INITIALIZER_LIST
C:\PROGRAM FILES (X86)\WINDOWS KITS\10\INCLUDE\10.0.18362.0\UCRT\MALLOC.H
C:\PROGRAM FILES (X86)\MICROSOFT VISUAL STUDIO\2019\COMMUNITY\VC\TOOLS\MSVC\14.23.28105\INCLUDE\VCRUNTIME_EXCEPTION.H
C:\PROGRAM FILES (X86)\MICROSOFT VISUAL STUDIO\2019\COMMUNITY\VC\TOOLS\MSVC\14.23.28105\INCLUDE\EH.H
C:\PROGRAM FILES (X86)\WINDOWS KITS\10\INCLUDE\10.0.18362.0\UCRT\CORECRT_TERMINATE.H
C:\PROGRAM FILES (X86)\MICROSOFT VISUAL STUDIO\2019\COMMUNITY\VC\TOOLS\MSVC\14.23.28105\INCLUDE\XSTRING
C:\PROGRAM FILES (X86)\MICROSOFT VISUAL STUDIO\2019\COMMUNITY\VC\TOOLS\MSVC\14.23.28105\INCLUDE\IOSFWD
C:\PROGRAM FILES (X86)\MICROSOFT VISUAL STUDIO\2019\COMMUNITY\VC\TOOLS\MSVC\14.23.28105\INCLUDE\CSTRING
C:\PROGRAM FILES (X86)\WINDOWS KITS\10\INCLUDE\10.0.18362.0\UCRT\STRING.H
C:\PROGRAM FILES (X86)\WINDOWS KITS\10\INCLUDE\10.0.18362.0\UCRT\CORECRT_MEMORY.H
C:\PROGRAM FILES (X86)\WINDOWS KITS\10\INCLUDE\10.0.18362.0\UCRT\CORECRT_MEMCPY_S.H
C:\PROGRAM FILES (X86)\MICROSOFT VISUAL STUDIO\2019\COMMUNITY\VC\TOOLS\MSVC\14.23.28105\INCLUDE\VCRUNTIME_STRING.H
C:\PROGRAM FILES (X86)\WINDOWS KITS\10\INCLUDE\10.0.18362.0\UCRT\CORECRT_WSTRING.H
C:\PROGRAM FILES (X86)\MICROSOFT VISUAL STUDIO\2019\COMMUNITY\VC\TOOLS\MSVC\14.23.28105\INCLUDE\CWCHAR
C:\PROGRAM FILES (X86)\WINDOWS KITS\10\INCLUDE\10.0.18362.0\UCRT\WCHAR.H
C:\PROGRAM FILES (X86)\WINDOWS KITS\10\INCLUDE\10.0.18362.0\UCRT\CORECRT_WCONIO.H
C:\PROGRAM FILES (X86)\WINDOWS KITS\10\INCLUDE\10.0.18362.0\UCRT\CORECRT_WCTYPE.H
C:\PROGRAM FILES (X86)\WINDOWS KITS\10\INCLUDE\10.0.18362.0\UCRT\CORECRT_WDIRECT.H
C:\PROGRAM FILES (X86)\WINDOWS KITS\10\INCLUDE\10.0.18362.0\UCRT\CORECRT_WIO.H
C:\PROGRAM FILES (X86)\WINDOWS KITS\10\INCLUDE\10.0.18362.0\UCRT\CORECRT_WPROCESS.H
C:\PROGRAM FILES (X86)\WINDOWS KITS\10\INCLUDE\10.0.18362.0\UCRT\CORECRT_WTIME.H
C:\PROGRAM FILES (X86)\WINDOWS KITS\10\INCLUDE\10.0.18362.0\UCRT\SYS\STAT.H
C:\PROGRAM FILES (X86)\WINDOWS KITS\10\INCLUDE\10.0.18362.0\UCRT\SYS\TYPES.H
C:\PROGRAM FILES (X86)\MICROSOFT VISUAL STUDIO\2019\COMMUNITY\VC\TOOLS\MSVC\14.23.28105\INCLUDE\XMEMORY
C:\PROGRAM FILES (X86)\MICROSOFT VISUAL STUDIO\2019\COMMUNITY\VC\TOOLS\MSVC\14.23.28105\INCLUDE\CSTDINT
C:\PROGRAM FILES (X86)\MICROSOFT VISUAL STUDIO\2019\COMMUNITY\VC\TOOLS\MSVC\14.23.28105\INCLUDE\STDINT.H
C:\PROGRAM FILES (X86)\MICROSOFT VISUAL STUDIO\2019\COMMUNITY\VC\TOOLS\MSVC\14.23.28105\INCLUDE\LIMITS
C:\PROGRAM FILES (X86)\MICROSOFT VISUAL STUDIO\2019\COMMUNITY\VC\TOOLS\MSVC\14.23.28105\INCLUDE\CFLOAT
C:\PROGRAM FILES (X86)\WINDOWS KITS\10\INCLUDE\10.0.18362.0\UCRT\FLOAT.H
C:\PROGRAM FILES (X86)\MICROSOFT VISUAL STUDIO\2019\COMMUNITY\VC\TOOLS\MSVC\14.23.28105\INCLUDE\NEW
C:\PROGRAM FILES (X86)\MICROSOFT VISUAL STUDIO\2019\COMMUNITY\VC\TOOLS\MSVC\14.23.28105\INCLUDE\XATOMIC.H
C:\PROGRAM FILES (X86)\MICROSOFT VISUAL STUDIO\2019\COMMUNITY\VC\TOOLS\MSVC\14.23.28105\INCLUDE\INTRIN0.H
C:\PROGRAM FILES (X86)\MICROSOFT VISUAL STUDIO\2019\COMMUNITY\VC\TOOLS\MSVC\14.23.28105\INCLUDE\XUTILITY
C:\PROGRAM FILES (X86)\MICROSOFT VISUAL STUDIO\2019\COMMUNITY\VC\TOOLS\MSVC\14.23.28105\INCLUDE\UTILITY
C:\PROGRAM FILES (X86)\MICROSOFT VISUAL STUDIO\2019\COMMUNITY\VC\TOOLS\MSVC\14.23.28105\INCLUDE\XCALL_ONCE.H
C:\PROGRAM FILES (X86)\MICROSOFT VISUAL STUDIO\2019\COMMUNITY\VC\TOOLS\MSVC\14.23.28105\INCLUDE\XERRC.H
C:\PROGRAM FILES (X86)\MICROSOFT VISUAL STUDIO\2019\COMMUNITY\VC\TOOLS\MSVC\14.23.28105\INCLUDE\XLOCALE
C:\PROGRAM FILES (X86)\MICROSOFT VISUAL STUDIO\2019\COMMUNITY\VC\TOOLS\MSVC\14.23.28105\INCLUDE\MEMORY
C:\PROGRAM FILES (X86)\MICROSOFT VISUAL STUDIO\2019\COMMUNITY\VC\TOOLS\MSVC\14.23.28105\INCLUDE\TYPEINFO
C:\PROGRAM FILES (X86)\MICROSOFT VISUAL STUDIO\2019\COMMUNITY\VC\TOOLS\MSVC\14.23.28105\INCLUDE\VCRUNTIME_TYPEINFO.H
C:\PROGRAM FILES (X86)\MICROSOFT VISUAL STUDIO\2019\COMMUNITY\VC\TOOLS\MSVC\14.23.28105\INCLUDE\XFACET
C:\PROGRAM FILES (X86)\MICROSOFT VISUAL STUDIO\2019\COMMUNITY\VC\TOOLS\MSVC\14.23.28105\INCLUDE\XLOCINFO
C:\PROGRAM FILES (X86)\MICROSOFT VISUAL STUDIO\2019\COMMUNITY\VC\TOOLS\MSVC\14.23.28105\INCLUDE\XLOCINFO.H
C:\PROGRAM FILES (X86)\WINDOWS KITS\10\INCLUDE\10.0.18362.0\UCRT\CTYPE.H
C:\PROGRAM FILES (X86)\WINDOWS KITS\10\INCLUDE\10.0.18362.0\UCRT\LOCALE.H
C:\PROGRAM FILES (X86)\MICROSOFT VISUAL STUDIO\2019\COMMUNITY\VC\TOOLS\MSVC\14.23.28105\INCLUDE\FSTREAM
D:\CLOUDSEM2\VCPKG-MASTER\INSTALLED\X86-WINDOWS\INCLUDE\GRPC\GRPC.H
D:\CLOUDSEM2\VCPKG-MASTER\INSTALLED\X86-WINDOWS\INCLUDE\GRPC\SUPPORT\PORT_PLATFORM.H
D:\CLOUDSEM2\VCPKG-MASTER\INSTALLED\X86-WINDOWS\INCLUDE\GRPC\IMPL\CODEGEN\PORT_PLATFORM.H
C:\PROGRAM FILES (X86)\WINDOWS KITS\10\INCLUDE\10.0.18362.0\UM\WINDOWS.H
C:\PROGRAM FILES (X86)\WINDOWS KITS\10\INCLUDE\10.0.18362.0\SHARED\WINAPIFAMILY.H
C:\PROGRAM FILES (X86)\WINDOWS KITS\10\INCLUDE\10.0.18362.0\SHARED\WINPACKAGEFAMILY.H
C:\PROGRAM FILES (X86)\WINDOWS KITS\10\INCLUDE\10.0.18362.0\SHARED\SDKDDKVER.H
C:\PROGRAM FILES (X86)\MICROSOFT VISUAL STUDIO\2019\COMMUNITY\VC\TOOLS\MSVC\14.23.28105\INCLUDE\EXCPT.H
C:\PROGRAM FILES (X86)\MICROSOFT VISUAL STUDIO\2019\COMMUNITY\VC\TOOLS\MSVC\14.23.28105\INCLUDE\STDARG.H
C:\PROGRAM FILES (X86)\WINDOWS KITS\10\INCLUDE\10.0.18362.0\SHARED\WINDEF.H
C:\PROGRAM FILES (X86)\WINDOWS KITS\10\INCLUDE\10.0.18362.0\SHARED\MINWINDEF.H
C:\PROGRAM FILES (X86)\WINDOWS KITS\10\INCLUDE\10.0.18362.0\SHARED\SPECSTRINGS.H
C:\PROGRAM FILES (X86)\WINDOWS KITS\10\INCLUDE\10.0.18362.0\SHARED\SPECSTRINGS_STRICT.H
C:\PROGRAM FILES (X86)\WINDOWS KITS\10\INCLUDE\10.0.18362.0\SHARED\SPECSTRINGS_UNDEF.H
C:\PROGRAM FILES (X86)\WINDOWS KITS\10\INCLUDE\10.0.18362.0\SHARED\DRIVERSPECS.H
C:\PROGRAM FILES (X86)\WINDOWS KITS\10\INCLUDE\10.0.18362.0\SHARED\SDV_DRIVERSPECS.H
C:\PROGRAM FILES (X86)\WINDOWS KITS\10\INCLUDE\10.0.18362.0\UM\WINNT.H
C:\PROGRAM FILES (X86)\WINDOWS KITS\10\INCLUDE\10.0.18362.0\SHARED\KERNELSPECS.H
C:\PROGRAM FILES (X86)\WINDOWS KITS\10\INCLUDE\10.0.18362.0\SHARED\BASETSD.H
C:\PROGRAM FILES (X86)\WINDOWS KITS\10\INCLUDE\10.0.18362.0\SHARED\GUIDDEF.H
C:\PROGRAM FILES (X86)\WINDOWS KITS\10\INCLUDE\10.0.18362.0\SHARED\PSHPACK4.H
C:\PROGRAM FILES (X86)\WINDOWS KITS\10\INCLUDE\10.0.18362.0\SHARED\POPPACK.H
C:\PROGRAM FILES (X86)\WINDOWS KITS\10\INCLUDE\10.0.18362.0\SHARED\PSHPACK2.H
C:\PROGRAM FILES (X86)\WINDOWS KITS\10\INCLUDE\10.0.18362.0\SHARED\PSHPACK8.H
C:\PROGRAM FILES (X86)\WINDOWS KITS\10\INCLUDE\10.0.18362.0\SHARED\PSHPACK1.H
C:\PROGRAM FILES (X86)\WINDOWS KITS\10\INCLUDE\10.0.18362.0\SHARED\APISET.H
C:\PROGRAM FILES (X86)\WINDOWS KITS\10\INCLUDE\10.0.18362.0\SHARED\KTMTYPES.H
C:\PROGRAM FILES (X86)\WINDOWS KITS\10\INCLUDE\10.0.18362.0\UM\WINBASE.H
C:\PROGRAM FILES (X86)\WINDOWS KITS\10\INCLUDE\10.0.18362.0\SHARED\APISETCCONV.H
C:\PROGRAM FILES (X86)\WINDOWS KITS\10\INCLUDE\10.0.18362.0\UM\MINWINBASE.H
C:\PROGRAM FILES (X86)\WINDOWS KITS\10\INCLUDE\10.0.18362.0\UM\APIQUERY2.H
C:\PROGRAM FILES (X86)\WINDOWS KITS\10\INCLUDE\10.0.18362.0\UM\PROCESSENV.H
C:\PROGRAM FILES (X86)\WINDOWS KITS\10\INCLUDE\10.0.18362.0\UM\FILEAPIFROMAPP.H
C:\PROGRAM FILES (X86)\WINDOWS KITS\10\INCLUDE\10.0.18362.0\UM\FILEAPI.H
C:\PROGRAM FILES (X86)\WINDOWS KITS\10\INCLUDE\10.0.18362.0\UM\DEBUGAPI.H
C:\PROGRAM FILES (X86)\WINDOWS KITS\10\INCLUDE\10.0.18362.0\UM\UTILAPISET.H
C:\PROGRAM FILES (X86)\WINDOWS KITS\10\INCLUDE\10.0.18362.0\UM\HANDLEAPI.H
C:\PROGRAM FILES (X86)\WINDOWS KITS\10\INCLUDE\10.0.18362.0\UM\ERRHANDLINGAPI.H
C:\PROGRAM FILES (X86)\WINDOWS KITS\10\INCLUDE\10.0.18362.0\UM\FIBERSAPI.H
C:\PROGRAM FILES (X86)\WINDOWS KITS\10\INCLUDE\10.0.18362.0\UM\NAMEDPIPEAPI.H
C:\PROGRAM FILES (X86)\WINDOWS KITS\10\INCLUDE\10.0.18362.0\UM\PROFILEAPI.H
C:\PROGRAM FILES (X86)\WINDOWS KITS\10\INCLUDE\10.0.18362.0\UM\HEAPAPI.H
C:\PROGRAM FILES (X86)\WINDOWS KITS\10\INCLUDE\10.0.18362.0\UM\IOAPISET.H
C:\PROGRAM FILES (X86)\WINDOWS KITS\10\INCLUDE\10.0.18362.0\UM\SYNCHAPI.H
C:\PROGRAM FILES (X86)\WINDOWS KITS\10\INCLUDE\10.0.18362.0\UM\INTERLOCKEDAPI.H
C:\PROGRAM FILES (X86)\WINDOWS KITS\10\INCLUDE\10.0.18362.0\UM\PROCESSTHREADSAPI.H
C:\PROGRAM FILES (X86)\WINDOWS KITS\10\INCLUDE\10.0.18362.0\UM\SYSINFOAPI.H
C:\PROGRAM FILES (X86)\WINDOWS KITS\10\INCLUDE\10.0.18362.0\UM\MEMORYAPI.H
C:\PROGRAM FILES (X86)\WINDOWS KITS\10\INCLUDE\10.0.18362.0\UM\ENCLAVEAPI.H
C:\PROGRAM FILES (X86)\WINDOWS KITS\10\INCLUDE\10.0.18362.0\UM\THREADPOOLLEGACYAPISET.H
C:\PROGRAM FILES (X86)\WINDOWS KITS\10\INCLUDE\10.0.18362.0\UM\THREADPOOLAPISET.H
C:\PROGRAM FILES (X86)\WINDOWS KITS\10\INCLUDE\10.0.18362.0\UM\JOBAPI.H
C:\PROGRAM FILES (X86)\WINDOWS KITS\10\INCLUDE\10.0.18362.0\UM\JOBAPI2.H
C:\PROGRAM FILES (X86)\WINDOWS KITS\10\INCLUDE\10.0.18362.0\UM\WOW64APISET.H
C:\PROGRAM FILES (X86)\WINDOWS KITS\10\INCLUDE\10.0.18362.0\UM\LIBLOADERAPI.H
C:\PROGRAM FILES (X86)\WINDOWS KITS\10\INCLUDE\10.0.18362.0\UM\SECURITYBASEAPI.H
C:\PROGRAM FILES (X86)\WINDOWS KITS\10\INCLUDE\10.0.18362.0\UM\NAMESPACEAPI.H
C:\PROGRAM FILES (X86)\WINDOWS KITS\10\INCLUDE\10.0.18362.0\UM\SYSTEMTOPOLOGYAPI.H
C:\PROGRAM FILES (X86)\WINDOWS KITS\10\INCLUDE\10.0.18362.0\UM\PROCESSTOPOLOGYAPI.H
C:\PROGRAM FILES (X86)\WINDOWS KITS\10\INCLUDE\10.0.18362.0\UM\SECURITYAPPCONTAINER.H
C:\PROGRAM FILES (X86)\WINDOWS KITS\10\INCLUDE\10.0.18362.0\UM\REALTIMEAPISET.H
C:\PROGRAM FILES (X86)\WINDOWS KITS\10\INCLUDE\10.0.18362.0\SHARED\WINERROR.H
C:\PROGRAM FILES (X86)\WINDOWS KITS\10\INCLUDE\10.0.18362.0\UM\TIMEZONEAPI.H
C:\PROGRAM FILES (X86)\WINDOWS KITS\10\INCLUDE\10.0.18362.0\UM\WINGDI.H
C:\PROGRAM FILES (X86)\WINDOWS KITS\10\INCLUDE\10.0.18362.0\UM\WINUSER.H
C:\PROGRAM FILES (X86)\WINDOWS KITS\10\INCLUDE\10.0.18362.0\SHARED\TVOUT.H
C:\PROGRAM FILES (X86)\WINDOWS KITS\10\INCLUDE\10.0.18362.0\UM\WINNLS.H
C:\PROGRAM FILES (X86)\WINDOWS KITS\10\INCLUDE\10.0.18362.0\UM\DATETIMEAPI.H
C:\PROGRAM FILES (X86)\WINDOWS KITS\10\INCLUDE\10.0.18362.0\UM\STRINGAPISET.H
C:\PROGRAM FILES (X86)\WINDOWS KITS\10\INCLUDE\10.0.18362.0\UM\WINCON.H
C:\PROGRAM FILES (X86)\WINDOWS KITS\10\INCLUDE\10.0.18362.0\UM\WINCONTYPES.H
C:\PROGRAM FILES (X86)\WINDOWS KITS\10\INCLUDE\10.0.18362.0\UM\CONSOLEAPI.H
C:\PROGRAM FILES (X86)\WINDOWS KITS\10\INCLUDE\10.0.18362.0\UM\CONSOLEAPI2.H
C:\PROGRAM FILES (X86)\WINDOWS KITS\10\INCLUDE\10.0.18362.0\UM\CONSOLEAPI3.H
C:\PROGRAM FILES (X86)\WINDOWS KITS\10\INCLUDE\10.0.18362.0\UM\WINVER.H
C:\PROGRAM FILES (X86)\WINDOWS KITS\10\INCLUDE\10.0.18362.0\UM\VERRSRC.H
C:\PROGRAM FILES (X86)\WINDOWS KITS\10\INCLUDE\10.0.18362.0\UM\WINREG.H
C:\PROGRAM FILES (X86)\WINDOWS KITS\10\INCLUDE\10.0.18362.0\UM\REASON.H
C:\PROGRAM FILES (X86)\WINDOWS KITS\10\INCLUDE\10.0.18362.0\UM\WINNETWK.H
C:\PROGRAM FILES (X86)\WINDOWS KITS\10\INCLUDE\10.0.18362.0\SHARED\WNNC.H
C:\PROGRAM FILES (X86)\WINDOWS KITS\10\INCLUDE\10.0.18362.0\SHARED\STRALIGN.H
C:\PROGRAM FILES (X86)\WINDOWS KITS\10\INCLUDE\10.0.18362.0\UM\WINSVC.H
C:\PROGRAM FILES (X86)\WINDOWS KITS\10\INCLUDE\10.0.18362.0\UM\MCX.H
C:\PROGRAM FILES (X86)\WINDOWS KITS\10\INCLUDE\10.0.18362.0\UM\IMM.H
C:\PROGRAM FILES (X86)\WINDOWS KITS\10\INCLUDE\10.0.18362.0\UM\IME_CMODES.H
D:\CLOUDSEM2\VCPKG-MASTER\INSTALLED\X86-WINDOWS\INCLUDE\GRPC\STATUS.H
D:\CLOUDSEM2\VCPKG-MASTER\INSTALLED\X86-WINDOWS\INCLUDE\GRPC\IMPL\CODEGEN\STATUS.H
D:\CLOUDSEM2\VCPKG-MASTER\INSTALLED\X86-WINDOWS\INCLUDE\GRPC\BYTE_BUFFER.H
D:\CLOUDSEM2\VCPKG-MASTER\INSTALLED\X86-WINDOWS\INCLUDE\GRPC\IMPL\CODEGEN\BYTE_BUFFER.H
D:\CLOUDSEM2\VCPKG-MASTER\INSTALLED\X86-WINDOWS\INCLUDE\GRPC\IMPL\CODEGEN\GRPC_TYPES.H
D:\CLOUDSEM2\VCPKG-MASTER\INSTALLED\X86-WINDOWS\INCLUDE\GRPC\IMPL\CODEGEN\COMPRESSION_TYPES.H
D:\CLOUDSEM2\VCPKG-MASTER\INSTALLED\X86-WINDOWS\INCLUDE\GRPC\IMPL\CODEGEN\GPR_TYPES.H
D:\CLOUDSEM2\VCPKG-MASTER\INSTALLED\X86-WINDOWS\INCLUDE\GRPC\IMPL\CODEGEN\SLICE.H
D:\CLOUDSEM2\VCPKG-MASTER\INSTALLED\X86-WINDOWS\INCLUDE\GRPC\IMPL\CODEGEN\GPR_SLICE.H
D:\CLOUDSEM2\VCPKG-MASTER\INSTALLED\X86-WINDOWS\INCLUDE\GRPC\SLICE_BUFFER.H
D:\CLOUDSEM2\VCPKG-MASTER\INSTALLED\X86-WINDOWS\INCLUDE\GRPC\SLICE.H
D:\CLOUDSEM2\VCPKG-MASTER\INSTALLED\X86-WINDOWS\INCLUDE\GRPC\SUPPORT\SYNC.H
D:\CLOUDSEM2\VCPKG-MASTER\INSTALLED\X86-WINDOWS\INCLUDE\GRPC\IMPL\CODEGEN\SYNC.H
D:\CLOUDSEM2\VCPKG-MASTER\INSTALLED\X86-WINDOWS\INCLUDE\GRPC\IMPL\CODEGEN\SYNC_GENERIC.H
D:\CLOUDSEM2\VCPKG-MASTER\INSTALLED\X86-WINDOWS\INCLUDE\GRPC\IMPL\CODEGEN\ATM.H
D:\CLOUDSEM2\VCPKG-MASTER\INSTALLED\X86-WINDOWS\INCLUDE\GRPC\IMPL\CODEGEN\ATM_WINDOWS.H
D:\CLOUDSEM2\VCPKG-MASTER\INSTALLED\X86-WINDOWS\INCLUDE\GRPC\IMPL\CODEGEN\SYNC_WINDOWS.H
D:\CLOUDSEM2\VCPKG-MASTER\INSTALLED\X86-WINDOWS\INCLUDE\GRPC\IMPL\CODEGEN\CONNECTIVITY_STATE.H
D:\CLOUDSEM2\VCPKG-MASTER\INSTALLED\X86-WINDOWS\INCLUDE\GRPC\IMPL\CODEGEN\PROPAGATION_BITS.H
D:\CLOUDSEM2\VCPKG-MASTER\INSTALLED\X86-WINDOWS\INCLUDE\GRPC\SUPPORT\TIME.H
C:\PROGRAM FILES (X86)\WINDOWS KITS\10\INCLUDE\10.0.18362.0\UCRT\TIME.H
D:\CLOUDSEM2\VCPKG-MASTER\INSTALLED\X86-WINDOWS\INCLUDE\GRPCPP\SERVER.H
D:\CLOUDSEM2\VCPKG-MASTER\INSTALLED\X86-WINDOWS\INCLUDE\GRPCPP\SERVER_IMPL.H
C:\PROGRAM FILES (X86)\MICROSOFT VISUAL STUDIO\2019\COMMUNITY\VC\TOOLS\MSVC\14.23.28105\INCLUDE\LIST
C:\PROGRAM FILES (X86)\MICROSOFT VISUAL STUDIO\2019\COMMUNITY\VC\TOOLS\MSVC\14.23.28105\INCLUDE\VECTOR
D:\CLOUDSEM2\VCPKG-MASTER\INSTALLED\X86-WINDOWS\INCLUDE\GRPC\COMPRESSION.H
D:\CLOUDSEM2\VCPKG-MASTER\INSTALLED\X86-WINDOWS\INCLUDE\GRPC\SUPPORT\ATM.H
D:\CLOUDSEM2\VCPKG-MASTER\INSTALLED\X86-WINDOWS\INCLUDE\GRPCPP\CHANNEL_IMPL.H
D:\CLOUDSEM2\VCPKG-MASTER\INSTALLED\X86-WINDOWS\INCLUDE\GRPCPP\IMPL\CALL.H
D:\CLOUDSEM2\VCPKG-MASTER\INSTALLED\X86-WINDOWS\INCLUDE\GRPCPP\IMPL\CODEGEN\CALL.H
D:\CLOUDSEM2\VCPKG-MASTER\INSTALLED\X86-WINDOWS\INCLUDE\GRPCPP\IMPL\CODEGEN\CALL_HOOK.H
D:\CLOUDSEM2\VCPKG-MASTER\INSTALLED\X86-WINDOWS\INCLUDE\GRPCPP\IMPL\CODEGEN\CHANNEL_INTERFACE.H
D:\CLOUDSEM2\VCPKG-MASTER\INSTALLED\X86-WINDOWS\INCLUDE\GRPCPP\IMPL\CODEGEN\STATUS.H
D:\CLOUDSEM2\VCPKG-MASTER\INSTALLED\X86-WINDOWS\INCLUDE\GRPCPP\IMPL\CODEGEN\CONFIG.H
C:\PROGRAM FILES (X86)\MICROSOFT VISUAL STUDIO\2019\COMMUNITY\VC\TOOLS\MSVC\14.23.28105\INCLUDE\STRING
C:\PROGRAM FILES (X86)\MICROSOFT VISUAL STUDIO\2019\COMMUNITY\VC\TOOLS\MSVC\14.23.28105\INCLUDE\CCTYPE
D:\CLOUDSEM2\VCPKG-MASTER\INSTALLED\X86-WINDOWS\INCLUDE\GRPCPP\IMPL\CODEGEN\STATUS_CODE_ENUM.H
D:\CLOUDSEM2\VCPKG-MASTER\INSTALLED\X86-WINDOWS\INCLUDE\GRPCPP\IMPL\CODEGEN\TIME.H
C:\PROGRAM FILES (X86)\MICROSOFT VISUAL STUDIO\2019\COMMUNITY\VC\TOOLS\MSVC\14.23.28105\INCLUDE\CHRONO
C:\PROGRAM FILES (X86)\MICROSOFT VISUAL STUDIO\2019\COMMUNITY\VC\TOOLS\MSVC\14.23.28105\INCLUDE\RATIO
C:\PROGRAM FILES (X86)\MICROSOFT VISUAL STUDIO\2019\COMMUNITY\VC\TOOLS\MSVC\14.23.28105\INCLUDE\THR\XTIMEC.H
D:\CLOUDSEM2\VCPKG-MASTER\INSTALLED\X86-WINDOWS\INCLUDE\GRPCPP\IMPL\CODEGEN\CLIENT_INTERCEPTOR.H
D:\CLOUDSEM2\VCPKG-MASTER\INSTALLED\X86-WINDOWS\INCLUDE\GRPCPP\IMPL\CODEGEN\INTERCEPTOR.H
D:\CLOUDSEM2\VCPKG-MASTER\INSTALLED\X86-WINDOWS\INCLUDE\GRPCPP\IMPL\CODEGEN\BYTE_BUFFER.H
D:\CLOUDSEM2\VCPKG-MASTER\INSTALLED\X86-WINDOWS\INCLUDE\GRPCPP\IMPL\CODEGEN\CORE_CODEGEN_INTERFACE.H
D:\CLOUDSEM2\VCPKG-MASTER\INSTALLED\X86-WINDOWS\INCLUDE\GRPC\IMPL\CODEGEN\BYTE_BUFFER_READER.H
D:\CLOUDSEM2\VCPKG-MASTER\INSTALLED\X86-WINDOWS\INCLUDE\GRPCPP\IMPL\CODEGEN\SERIALIZATION_TRAITS.H
D:\CLOUDSEM2\VCPKG-MASTER\INSTALLED\X86-WINDOWS\INCLUDE\GRPCPP\IMPL\CODEGEN\SLICE.H
D:\CLOUDSEM2\VCPKG-MASTER\INSTALLED\X86-WINDOWS\INCLUDE\GRPCPP\IMPL\CODEGEN\STRING_REF.H
C:\PROGRAM FILES (X86)\MICROSOFT VISUAL STUDIO\2019\COMMUNITY\VC\TOOLS\MSVC\14.23.28105\INCLUDE\ALGORITHM
C:\PROGRAM FILES (X86)\MICROSOFT VISUAL STUDIO\2019\COMMUNITY\VC\TOOLS\MSVC\14.23.28105\INCLUDE\ITERATOR
D:\CLOUDSEM2\VCPKG-MASTER\INSTALLED\X86-WINDOWS\INCLUDE\GRPCPP\IMPL\CODEGEN\METADATA_MAP.H
C:\PROGRAM FILES (X86)\MICROSOFT VISUAL STUDIO\2019\COMMUNITY\VC\TOOLS\MSVC\14.23.28105\INCLUDE\MAP
C:\PROGRAM FILES (X86)\MICROSOFT VISUAL STUDIO\2019\COMMUNITY\VC\TOOLS\MSVC\14.23.28105\INCLUDE\TUPLE
C:\PROGRAM FILES (X86)\MICROSOFT VISUAL STUDIO\2019\COMMUNITY\VC\TOOLS\MSVC\14.23.28105\INCLUDE\XTREE
D:\CLOUDSEM2\VCPKG-MASTER\INSTALLED\X86-WINDOWS\INCLUDE\GRPC\IMPL\CODEGEN\LOG.H
D:\CLOUDSEM2\VCPKG-MASTER\INSTALLED\X86-WINDOWS\INCLUDE\GRPCPP\IMPL\CODEGEN\RPC_METHOD.H
D:\CLOUDSEM2\VCPKG-MASTER\INSTALLED\X86-WINDOWS\INCLUDE\GRPCPP\IMPL\CODEGEN\COMPLETION_QUEUE_IMPL.H
D:\CLOUDSEM2\VCPKG-MASTER\INSTALLED\X86-WINDOWS\INCLUDE\GRPCPP\IMPL\CODEGEN\COMPLETION_QUEUE_TAG.H
D:\CLOUDSEM2\VCPKG-MASTER\INSTALLED\X86-WINDOWS\INCLUDE\GRPCPP\IMPL\CODEGEN\GRPC_LIBRARY.H
D:\CLOUDSEM2\VCPKG-MASTER\INSTALLED\X86-WINDOWS\INCLUDE\GRPCPP\IMPL\CODEGEN\SYNC.H
C:\PROGRAM FILES (X86)\MICROSOFT VISUAL STUDIO\2019\COMMUNITY\VC\TOOLS\MSVC\14.23.28105\INCLUDE\MUTEX
C:\PROGRAM FILES (X86)\MICROSOFT VISUAL STUDIO\2019\COMMUNITY\VC\TOOLS\MSVC\14.23.28105\INCLUDE\THREAD
C:\PROGRAM FILES (X86)\WINDOWS KITS\10\INCLUDE\10.0.18362.0\UCRT\PROCESS.H
C:\PROGRAM FILES (X86)\WINDOWS KITS\10\INCLUDE\10.0.18362.0\UCRT\CORECRT_STARTUP.H
C:\PROGRAM FILES (X86)\MICROSOFT VISUAL STUDIO\2019\COMMUNITY\VC\TOOLS\MSVC\14.23.28105\INCLUDE\VCRUNTIME_STARTUP.H
C:\PROGRAM FILES (X86)\MICROSOFT VISUAL STUDIO\2019\COMMUNITY\VC\TOOLS\MSVC\14.23.28105\INCLUDE\THR\XTHREADS.H
D:\CLOUDSEM2\VCPKG-MASTER\INSTALLED\X86-WINDOWS\INCLUDE\GRPCPP\COMPLETION_QUEUE_IMPL.H
D:\CLOUDSEM2\VCPKG-MASTER\INSTALLED\X86-WINDOWS\INCLUDE\GRPCPP\HEALTH_CHECK_SERVICE_INTERFACE.H
D:\CLOUDSEM2\VCPKG-MASTER\INSTALLED\X86-WINDOWS\INCLUDE\GRPCPP\HEALTH_CHECK_SERVICE_INTERFACE_IMPL.H
D:\CLOUDSEM2\VCPKG-MASTER\INSTALLED\X86-WINDOWS\INCLUDE\GRPCPP\SUPPORT\CONFIG.H
D:\CLOUDSEM2\VCPKG-MASTER\INSTALLED\X86-WINDOWS\INCLUDE\GRPCPP\IMPL\CODEGEN\SERVER_INTERFACE.H
D:\CLOUDSEM2\VCPKG-MASTER\INSTALLED\X86-WINDOWS\INCLUDE\GRPCPP\IMPL\CODEGEN\INTERCEPTOR_COMMON.H
C:\PROGRAM FILES (X86)\MICROSOFT VISUAL STUDIO\2019\COMMUNITY\VC\TOOLS\MSVC\14.23.28105\INCLUDE\ARRAY
C:\PROGRAM FILES (X86)\MICROSOFT VISUAL STUDIO\2019\COMMUNITY\VC\TOOLS\MSVC\14.23.28105\INCLUDE\FUNCTIONAL
D:\CLOUDSEM2\VCPKG-MASTER\INSTALLED\X86-WINDOWS\INCLUDE\GRPCPP\IMPL\CODEGEN\CALL_OP_SET_INTERFACE.H
D:\CLOUDSEM2\VCPKG-MASTER\INSTALLED\X86-WINDOWS\INCLUDE\GRPCPP\IMPL\CODEGEN\INTERCEPTED_CHANNEL.H
D:\CLOUDSEM2\VCPKG-MASTER\INSTALLED\X86-WINDOWS\INCLUDE\GRPCPP\IMPL\CODEGEN\SERVER_INTERCEPTOR.H
C:\PROGRAM FILES (X86)\MICROSOFT VISUAL STUDIO\2019\COMMUNITY\VC\TOOLS\MSVC\14.23.28105\INCLUDE\ATOMIC
D:\CLOUDSEM2\VCPKG-MASTER\INSTALLED\X86-WINDOWS\INCLUDE\GRPCPP\IMPL\CODEGEN\RPC_SERVICE_METHOD.H
D:\CLOUDSEM2\VCPKG-MASTER\INSTALLED\X86-WINDOWS\INCLUDE\GRPCPP\IMPL\CODEGEN\SERVER_CONTEXT_IMPL.H
D:\CLOUDSEM2\VCPKG-MASTER\INSTALLED\X86-WINDOWS\INCLUDE\GRPCPP\IMPL\CODEGEN\CALL_OP_SET.H
D:\CLOUDSEM2\VCPKG-MASTER\INSTALLED\X86-WINDOWS\INCLUDE\GRPCPP\IMPL\CODEGEN\CLIENT_CONTEXT_IMPL.H
D:\CLOUDSEM2\VCPKG-MASTER\INSTALLED\X86-WINDOWS\INCLUDE\GRPCPP\IMPL\CODEGEN\CREATE_AUTH_CONTEXT.H
D:\CLOUDSEM2\VCPKG-MASTER\INSTALLED\X86-WINDOWS\INCLUDE\GRPCPP\IMPL\CODEGEN\SECURITY\AUTH_CONTEXT.H
D:\CLOUDSEM2\VCPKG-MASTER\INSTALLED\X86-WINDOWS\INCLUDE\GRPCPP\IMPL\CODEGEN\CALLBACK_COMMON.H
D:\CLOUDSEM2\VCPKG-MASTER\INSTALLED\X86-WINDOWS\INCLUDE\GRPCPP\IMPL\CODEGEN\MESSAGE_ALLOCATOR.H
D:\CLOUDSEM2\VCPKG-MASTER\INSTALLED\X86-WINDOWS\INCLUDE\GRPCPP\IMPL\CODEGEN\SERVER_CALLBACK_IMPL.H
D:\CLOUDSEM2\VCPKG-MASTER\INSTALLED\X86-WINDOWS\INCLUDE\GRPCPP\IMPL\RPC_SERVICE_METHOD.H
D:\CLOUDSEM2\VCPKG-MASTER\INSTALLED\X86-WINDOWS\INCLUDE\GRPCPP\SECURITY\SERVER_CREDENTIALS.H
D:\CLOUDSEM2\VCPKG-MASTER\INSTALLED\X86-WINDOWS\INCLUDE\GRPCPP\SECURITY\SERVER_CREDENTIALS_IMPL.H
D:\CLOUDSEM2\VCPKG-MASTER\INSTALLED\X86-WINDOWS\INCLUDE\GRPC\GRPC_SECURITY_CONSTANTS.H
D:\CLOUDSEM2\VCPKG-MASTER\INSTALLED\X86-WINDOWS\INCLUDE\GRPCPP\SECURITY\AUTH_METADATA_PROCESSOR.H
D:\CLOUDSEM2\VCPKG-MASTER\INSTALLED\X86-WINDOWS\INCLUDE\GRPCPP\SECURITY\AUTH_METADATA_PROCESSOR_IMPL.H
D:\CLOUDSEM2\VCPKG-MASTER\INSTALLED\X86-WINDOWS\INCLUDE\GRPCPP\SECURITY\AUTH_CONTEXT.H
D:\CLOUDSEM2\VCPKG-MASTER\INSTALLED\X86-WINDOWS\INCLUDE\GRPCPP\SUPPORT\STATUS.H
D:\CLOUDSEM2\VCPKG-MASTER\INSTALLED\X86-WINDOWS\INCLUDE\GRPCPP\SUPPORT\STRING_REF.H
D:\CLOUDSEM2\VCPKG-MASTER\INSTALLED\X86-WINDOWS\INCLUDE\GRPCPP\SECURITY\TLS_CREDENTIALS_OPTIONS.H
D:\CLOUDSEM2\VCPKG-MASTER\INSTALLED\X86-WINDOWS\INCLUDE\GRPC\SUPPORT\LOG.H
D:\CLOUDSEM2\VCPKG-MASTER\INSTALLED\X86-WINDOWS\INCLUDE\GRPCPP\SUPPORT\CHANNEL_ARGUMENTS_IMPL.H
D:\CLOUDSEM2\VCPKG-MASTER\INSTALLED\X86-WINDOWS\INCLUDE\GRPCPP\RESOURCE_QUOTA.H
D:\CLOUDSEM2\VCPKG-MASTER\INSTALLED\X86-WINDOWS\INCLUDE\GRPCPP\RESOURCE_QUOTA_IMPL.H
D:\CLOUDSEM2\VCPKG-MASTER\INSTALLED\X86-WINDOWS\INCLUDE\GRPCPP\SERVER_BUILDER.H
D:\CLOUDSEM2\VCPKG-MASTER\INSTALLED\X86-WINDOWS\INCLUDE\GRPCPP\SERVER_BUILDER_IMPL.H
D:\CLOUDSEM2\VCPKG-MASTER\INSTALLED\X86-WINDOWS\INCLUDE\GRPC\SUPPORT\CPU.H
D:\CLOUDSEM2\VCPKG-MASTER\INSTALLED\X86-WINDOWS\INCLUDE\GRPC\SUPPORT\WORKAROUND_LIST.H
D:\CLOUDSEM2\VCPKG-MASTER\INSTALLED\X86-WINDOWS\INCLUDE\GRPCPP\IMPL\CHANNEL_ARGUMENT_OPTION.H
D:\CLOUDSEM2\VCPKG-MASTER\INSTALLED\X86-WINDOWS\INCLUDE\GRPCPP\IMPL\SERVER_BUILDER_OPTION.H
D:\CLOUDSEM2\VCPKG-MASTER\INSTALLED\X86-WINDOWS\INCLUDE\GRPCPP\IMPL\SERVER_BUILDER_OPTION_IMPL.H
D:\CLOUDSEM2\VCPKG-MASTER\INSTALLED\X86-WINDOWS\INCLUDE\GRPCPP\IMPL\SERVER_BUILDER_PLUGIN.H
D:\CLOUDSEM2\VCPKG-MASTER\INSTALLED\X86-WINDOWS\INCLUDE\GRPCPP\SUPPORT\CHANNEL_ARGUMENTS.H
D:\CLOUDSEM2\VCPKG-MASTER\INSTALLED\X86-WINDOWS\INCLUDE\GRPCPP\SERVER_CONTEXT.H
D:\CLOUDSEM2\VCPKG-MASTER\INSTALLED\X86-WINDOWS\INCLUDE\GRPCPP\IMPL\CODEGEN\SERVER_CONTEXT.H
D:\CLOUDTEMA2\GENERATED\SERVER\DATAOPERATIONSERVICEIMP.H
D:\CLOUDTEMA2\GENERATED\DATAOPERATION.GRPC.PB.H
D:\CLOUDTEMA2\GENERATED\DATAOPERATION.PB.H
D:\CLOUDSEM2\VCPKG-MASTER\INSTALLED\X86-WINDOWS\INCLUDE\GOOGLE\PROTOBUF\PORT_DEF.INC
D:\CLOUDSEM2\VCPKG-MASTER\INSTALLED\X86-WINDOWS\INCLUDE\GOOGLE\PROTOBUF\PORT_UNDEF.INC
D:\CLOUDSEM2\VCPKG-MASTER\INSTALLED\X86-WINDOWS\INCLUDE\GOOGLE\PROTOBUF\IO\CODED_STREAM.H
C:\PROGRAM FILES (X86)\WINDOWS KITS\10\INCLUDE\10.0.18362.0\UCRT\ASSERT.H
D:\CLOUDSEM2\VCPKG-MASTER\INSTALLED\X86-WINDOWS\INCLUDE\GOOGLE\PROTOBUF\STUBS\COMMON.H
C:\PROGRAM FILES (X86)\MICROSOFT VISUAL STUDIO\2019\COMMUNITY\VC\TOOLS\MSVC\14.23.28105\INCLUDE\SET
D:\CLOUDSEM2\VCPKG-MASTER\INSTALLED\X86-WINDOWS\INCLUDE\GOOGLE\PROTOBUF\STUBS\PORT.H
D:\CLOUDSEM2\VCPKG-MASTER\INSTALLED\X86-WINDOWS\INCLUDE\GOOGLE\PROTOBUF\STUBS\PLATFORM_MACROS.H
C:\PROGRAM FILES (X86)\MICROSOFT VISUAL STUDIO\2019\COMMUNITY\VC\TOOLS\MSVC\14.23.28105\INCLUDE\INTRIN.H
C:\PROGRAM FILES (X86)\MICROSOFT VISUAL STUDIO\2019\COMMUNITY\VC\TOOLS\MSVC\14.23.28105\INCLUDE\SETJMP.H
C:\PROGRAM FILES (X86)\MICROSOFT VISUAL STUDIO\2019\COMMUNITY\VC\TOOLS\MSVC\14.23.28105\INCLUDE\IMMINTRIN.H
C:\PROGRAM FILES (X86)\MICROSOFT VISUAL STUDIO\2019\COMMUNITY\VC\TOOLS\MSVC\14.23.28105\INCLUDE\WMMINTRIN.H
C:\PROGRAM FILES (X86)\MICROSOFT VISUAL STUDIO\2019\COMMUNITY\VC\TOOLS\MSVC\14.23.28105\INCLUDE\NMMINTRIN.H
C:\PROGRAM FILES (X86)\MICROSOFT VISUAL STUDIO\2019\COMMUNITY\VC\TOOLS\MSVC\14.23.28105\INCLUDE\SMMINTRIN.H
C:\PROGRAM FILES (X86)\MICROSOFT VISUAL STUDIO\2019\COMMUNITY\VC\TOOLS\MSVC\14.23.28105\INCLUDE\TMMINTRIN.H
C:\PROGRAM FILES (X86)\MICROSOFT VISUAL STUDIO\2019\COMMUNITY\VC\TOOLS\MSVC\14.23.28105\INCLUDE\PMMINTRIN.H
C:\PROGRAM FILES (X86)\MICROSOFT VISUAL STUDIO\2019\COMMUNITY\VC\TOOLS\MSVC\14.23.28105\INCLUDE\EMMINTRIN.H
C:\PROGRAM FILES (X86)\MICROSOFT VISUAL STUDIO\2019\COMMUNITY\VC\TOOLS\MSVC\14.23.28105\INCLUDE\XMMINTRIN.H
C:\PROGRAM FILES (X86)\MICROSOFT VISUAL STUDIO\2019\COMMUNITY\VC\TOOLS\MSVC\14.23.28105\INCLUDE\MMINTRIN.H
C:\PROGRAM FILES (X86)\MICROSOFT VISUAL STUDIO\2019\COMMUNITY\VC\TOOLS\MSVC\14.23.28105\INCLUDE\ZMMINTRIN.H
C:\PROGRAM FILES (X86)\MICROSOFT VISUAL STUDIO\2019\COMMUNITY\VC\TOOLS\MSVC\14.23.28105\INCLUDE\AMMINTRIN.H
C:\PROGRAM FILES (X86)\MICROSOFT VISUAL STUDIO\2019\COMMUNITY\VC\TOOLS\MSVC\14.23.28105\INCLUDE\MM3DNOW.H
D:\CLOUDSEM2\VCPKG-MASTER\INSTALLED\X86-WINDOWS\INCLUDE\GOOGLE\PROTOBUF\STUBS\MACROS.H
D:\CLOUDSEM2\VCPKG-MASTER\INSTALLED\X86-WINDOWS\INCLUDE\GOOGLE\PROTOBUF\STUBS\LOGGING.H
D:\CLOUDSEM2\VCPKG-MASTER\INSTALLED\X86-WINDOWS\INCLUDE\GOOGLE\PROTOBUF\STUBS\STRUTIL.H
D:\CLOUDSEM2\VCPKG-MASTER\INSTALLED\X86-WINDOWS\INCLUDE\GOOGLE\PROTOBUF\STUBS\STRINGPIECE.H
D:\CLOUDSEM2\VCPKG-MASTER\INSTALLED\X86-WINDOWS\INCLUDE\GOOGLE\PROTOBUF\STUBS\HASH.H
C:\PROGRAM FILES (X86)\MICROSOFT VISUAL STUDIO\2019\COMMUNITY\VC\TOOLS\MSVC\14.23.28105\INCLUDE\UNORDERED_MAP
C:\PROGRAM FILES (X86)\MICROSOFT VISUAL STUDIO\2019\COMMUNITY\VC\TOOLS\MSVC\14.23.28105\INCLUDE\XHASH
C:\PROGRAM FILES (X86)\MICROSOFT VISUAL STUDIO\2019\COMMUNITY\VC\TOOLS\MSVC\14.23.28105\INCLUDE\XBIT_OPS.H
C:\PROGRAM FILES (X86)\MICROSOFT VISUAL STUDIO\2019\COMMUNITY\VC\TOOLS\MSVC\14.23.28105\INCLUDE\UNORDERED_SET
D:\CLOUDSEM2\VCPKG-MASTER\INSTALLED\X86-WINDOWS\INCLUDE\GOOGLE\PROTOBUF\PORT.H
D:\CLOUDSEM2\VCPKG-MASTER\INSTALLED\X86-WINDOWS\INCLUDE\GOOGLE\PROTOBUF\ARENA.H
D:\CLOUDSEM2\VCPKG-MASTER\INSTALLED\X86-WINDOWS\INCLUDE\GOOGLE\PROTOBUF\ARENA_IMPL.H
D:\CLOUDSEM2\VCPKG-MASTER\INSTALLED\X86-WINDOWS\INCLUDE\GOOGLE\PROTOBUF\ARENASTRING.H
D:\CLOUDSEM2\VCPKG-MASTER\INSTALLED\X86-WINDOWS\INCLUDE\GOOGLE\PROTOBUF\STUBS\FASTMEM.H
D:\CLOUDSEM2\VCPKG-MASTER\INSTALLED\X86-WINDOWS\INCLUDE\GOOGLE\PROTOBUF\GENERATED_MESSAGE_TABLE_DRIVEN.H
D:\CLOUDSEM2\VCPKG-MASTER\INSTALLED\X86-WINDOWS\INCLUDE\GOOGLE\PROTOBUF\MAP.H
D:\CLOUDSEM2\VCPKG-MASTER\INSTALLED\X86-WINDOWS\INCLUDE\GOOGLE\PROTOBUF\GENERATED_ENUM_UTIL.H
D:\CLOUDSEM2\VCPKG-MASTER\INSTALLED\X86-WINDOWS\INCLUDE\GOOGLE\PROTOBUF\MESSAGE_LITE.H
D:\CLOUDSEM2\VCPKG-MASTER\INSTALLED\X86-WINDOWS\INCLUDE\GOOGLE\PROTOBUF\STUBS\ONCE.H
D:\CLOUDSEM2\VCPKG-MASTER\INSTALLED\X86-WINDOWS\INCLUDE\GOOGLE\PROTOBUF\MAP_TYPE_HANDLER.H
D:\CLOUDSEM2\VCPKG-MASTER\INSTALLED\X86-WINDOWS\INCLUDE\GOOGLE\PROTOBUF\PARSE_CONTEXT.H
D:\CLOUDSEM2\VCPKG-MASTER\INSTALLED\X86-WINDOWS\INCLUDE\GOOGLE\PROTOBUF\IO\ZERO_COPY_STREAM.H
D:\CLOUDSEM2\VCPKG-MASTER\INSTALLED\X86-WINDOWS\INCLUDE\GOOGLE\PROTOBUF\IMPLICIT_WEAK_MESSAGE.H
D:\CLOUDSEM2\VCPKG-MASTER\INSTALLED\X86-WINDOWS\INCLUDE\GOOGLE\PROTOBUF\REPEATED_FIELD.H
D:\CLOUDSEM2\VCPKG-MASTER\INSTALLED\X86-WINDOWS\INCLUDE\GOOGLE\PROTOBUF\STUBS\CASTS.H
D:\CLOUDSEM2\VCPKG-MASTER\INSTALLED\X86-WINDOWS\INCLUDE\GOOGLE\PROTOBUF\METADATA_LITE.H
D:\CLOUDSEM2\VCPKG-MASTER\INSTALLED\X86-WINDOWS\INCLUDE\GOOGLE\PROTOBUF\GENERATED_MESSAGE_UTIL.H
D:\CLOUDSEM2\VCPKG-MASTER\INSTALLED\X86-WINDOWS\INCLUDE\GOOGLE\PROTOBUF\ANY.H
D:\CLOUDSEM2\VCPKG-MASTER\INSTALLED\X86-WINDOWS\INCLUDE\GOOGLE\PROTOBUF\HAS_BITS.H
D:\CLOUDSEM2\VCPKG-MASTER\INSTALLED\X86-WINDOWS\INCLUDE\GOOGLE\PROTOBUF\WIRE_FORMAT_LITE.H
D:\CLOUDSEM2\VCPKG-MASTER\INSTALLED\X86-WINDOWS\INCLUDE\GOOGLE\PROTOBUF\MAP_ENTRY_LITE.H
D:\CLOUDSEM2\VCPKG-MASTER\INSTALLED\X86-WINDOWS\INCLUDE\GOOGLE\PROTOBUF\MAP_FIELD_LITE.H
D:\CLOUDSEM2\VCPKG-MASTER\INSTALLED\X86-WINDOWS\INCLUDE\GOOGLE\PROTOBUF\INLINED_STRING_FIELD.H
D:\CLOUDSEM2\VCPKG-MASTER\INSTALLED\X86-WINDOWS\INCLUDE\GOOGLE\PROTOBUF\METADATA.H
D:\CLOUDSEM2\VCPKG-MASTER\INSTALLED\X86-WINDOWS\INCLUDE\GOOGLE\PROTOBUF\UNKNOWN_FIELD_SET.H
D:\CLOUDSEM2\VCPKG-MASTER\INSTALLED\X86-WINDOWS\INCLUDE\GOOGLE\PROTOBUF\IO\ZERO_COPY_STREAM_IMPL_LITE.H
D:\CLOUDSEM2\VCPKG-MASTER\INSTALLED\X86-WINDOWS\INCLUDE\GOOGLE\PROTOBUF\STUBS\CALLBACK.H
D:\CLOUDSEM2\VCPKG-MASTER\INSTALLED\X86-WINDOWS\INCLUDE\GOOGLE\PROTOBUF\STUBS\STL_UTIL.H
D:\CLOUDSEM2\VCPKG-MASTER\INSTALLED\X86-WINDOWS\INCLUDE\GOOGLE\PROTOBUF\GENERATED_MESSAGE_REFLECTION.H
D:\CLOUDSEM2\VCPKG-MASTER\INSTALLED\X86-WINDOWS\INCLUDE\GOOGLE\PROTOBUF\DESCRIPTOR.H
D:\CLOUDSEM2\VCPKG-MASTER\INSTALLED\X86-WINDOWS\INCLUDE\GOOGLE\PROTOBUF\STUBS\MUTEX.H
D:\CLOUDSEM2\VCPKG-MASTER\INSTALLED\X86-WINDOWS\INCLUDE\GOOGLE\PROTOBUF\GENERATED_ENUM_REFLECTION.H
D:\CLOUDSEM2\VCPKG-MASTER\INSTALLED\X86-WINDOWS\INCLUDE\GOOGLE\PROTOBUF\EXTENSION_SET.H
C:\PROGRAM FILES (X86)\MICROSOFT VISUAL STUDIO\2019\COMMUNITY\VC\TOOLS\MSVC\14.23.28105\INCLUDE\CASSERT
D:\CLOUDTEMA2\GENERATED\DATARESPONSE.PB.H
D:\CLOUDSEM2\VCPKG-MASTER\INSTALLED\X86-WINDOWS\INCLUDE\GOOGLE\PROTOBUF\MESSAGE.H
D:\CLOUDTEMA2\GENERATED\DATAREQUEST.PB.H
D:\CLOUDSEM2\VCPKG-MASTER\INSTALLED\X86-WINDOWS\INCLUDE\GRPCPP\IMPL\CODEGEN\ASYNC_GENERIC_SERVICE.H
D:\CLOUDSEM2\VCPKG-MASTER\INSTALLED\X86-WINDOWS\INCLUDE\GRPCPP\IMPL\CODEGEN\ASYNC_STREAM_IMPL.H
D:\CLOUDSEM2\VCPKG-MASTER\INSTALLED\X86-WINDOWS\INCLUDE\GRPCPP\IMPL\CODEGEN\SERVICE_TYPE.H
D:\CLOUDSEM2\VCPKG-MASTER\INSTALLED\X86-WINDOWS\INCLUDE\GRPCPP\IMPL\CODEGEN\SERVER_CALLBACK_HANDLERS.H
D:\CLOUDSEM2\VCPKG-MASTER\INSTALLED\X86-WINDOWS\INCLUDE\GRPCPP\IMPL\CODEGEN\ASYNC_STREAM.H
D:\CLOUDSEM2\VCPKG-MASTER\INSTALLED\X86-WINDOWS\INCLUDE\GRPCPP\IMPL\CODEGEN\ASYNC_UNARY_CALL.H
D:\CLOUDSEM2\VCPKG-MASTER\INSTALLED\X86-WINDOWS\INCLUDE\GRPCPP\IMPL\CODEGEN\ASYNC_UNARY_CALL_IMPL.H
D:\CLOUDSEM2\VCPKG-MASTER\INSTALLED\X86-WINDOWS\INCLUDE\GRPCPP\IMPL\CODEGEN\CLIENT_CALLBACK.H
D:\CLOUDSEM2\VCPKG-MASTER\INSTALLED\X86-WINDOWS\INCLUDE\GRPCPP\IMPL\CODEGEN\CLIENT_CALLBACK_IMPL.H
D:\CLOUDSEM2\VCPKG-MASTER\INSTALLED\X86-WINDOWS\INCLUDE\GRPCPP\IMPL\CODEGEN\CLIENT_CONTEXT.H
D:\CLOUDSEM2\VCPKG-MASTER\INSTALLED\X86-WINDOWS\INCLUDE\GRPCPP\IMPL\CODEGEN\COMPLETION_QUEUE.H
D:\CLOUDSEM2\VCPKG-MASTER\INSTALLED\X86-WINDOWS\INCLUDE\GRPCPP\IMPL\CODEGEN\METHOD_HANDLER.H
D:\CLOUDSEM2\VCPKG-MASTER\INSTALLED\X86-WINDOWS\INCLUDE\GRPCPP\IMPL\CODEGEN\METHOD_HANDLER_IMPL.H
D:\CLOUDSEM2\VCPKG-MASTER\INSTALLED\X86-WINDOWS\INCLUDE\GRPCPP\IMPL\CODEGEN\SYNC_STREAM_IMPL.H
D:\CLOUDSEM2\VCPKG-MASTER\INSTALLED\X86-WINDOWS\INCLUDE\GRPCPP\IMPL\CODEGEN\PROTO_UTILS.H
D:\CLOUDSEM2\VCPKG-MASTER\INSTALLED\X86-WINDOWS\INCLUDE\GRPCPP\IMPL\CODEGEN\CONFIG_PROTOBUF.H
D:\CLOUDSEM2\VCPKG-MASTER\INSTALLED\X86-WINDOWS\INCLUDE\GOOGLE\PROTOBUF\DESCRIPTOR.PB.H
D:\CLOUDSEM2\VCPKG-MASTER\INSTALLED\X86-WINDOWS\INCLUDE\GOOGLE\PROTOBUF\DESCRIPTOR_DATABASE.H
D:\CLOUDSEM2\VCPKG-MASTER\INSTALLED\X86-WINDOWS\INCLUDE\GOOGLE\PROTOBUF\UTIL\JSON_UTIL.H
D:\CLOUDSEM2\VCPKG-MASTER\INSTALLED\X86-WINDOWS\INCLUDE\GOOGLE\PROTOBUF\UTIL\TYPE_RESOLVER.H
D:\CLOUDSEM2\VCPKG-MASTER\INSTALLED\X86-WINDOWS\INCLUDE\GOOGLE\PROTOBUF\TYPE.PB.H
D:\CLOUDSEM2\VCPKG-MASTER\INSTALLED\X86-WINDOWS\INCLUDE\GOOGLE\PROTOBUF\ANY.PB.H
D:\CLOUDSEM2\VCPKG-MASTER\INSTALLED\X86-WINDOWS\INCLUDE\GOOGLE\PROTOBUF\SOURCE_CONTEXT.PB.H
D:\CLOUDSEM2\VCPKG-MASTER\INSTALLED\X86-WINDOWS\INCLUDE\GOOGLE\PROTOBUF\STUBS\STATUS.H
D:\CLOUDSEM2\VCPKG-MASTER\INSTALLED\X86-WINDOWS\INCLUDE\GOOGLE\PROTOBUF\STUBS\BYTESTREAM.H
D:\CLOUDSEM2\VCPKG-MASTER\INSTALLED\X86-WINDOWS\INCLUDE\GRPCPP\IMPL\CODEGEN\PROTO_BUFFER_READER.H
D:\CLOUDSEM2\VCPKG-MASTER\INSTALLED\X86-WINDOWS\INCLUDE\GRPCPP\IMPL\CODEGEN\PROTO_BUFFER_WRITER.H
D:\CLOUDSEM2\VCPKG-MASTER\INSTALLED\X86-WINDOWS\INCLUDE\GRPCPP\IMPL\CODEGEN\SERVER_CALLBACK.H
D:\CLOUDSEM2\VCPKG-MASTER\INSTALLED\X86-WINDOWS\INCLUDE\GRPCPP\IMPL\CODEGEN\STUB_OPTIONS.H
D:\CLOUDSEM2\VCPKG-MASTER\INSTALLED\X86-WINDOWS\INCLUDE\GRPCPP\IMPL\CODEGEN\SYNC_STREAM.H
