20/01 19/02 Aquarius
19/02 21/03 Pisces
21/03 20/04 Aries
20/04 21/05 Taurus
21/05 21/06 Gemini
21/06 23/07 Cancer
23/07 23/08 Leo
23/08 23/09 Virgo
23/09 23/10 Libra
23/10 22/11 Scorpio
22/11 22/12 Sagittarius
22/12 20/01 Capricorn